ID	GSM830483	GSM830484	GSM830485	GSM830486	GSM830487	GSM830488	GSM830489	GSM830490	GSM830491	GSM830492	GSM830493	GSM830494
SNP_A-2131660	2	2	2	2	2	2	3	3	3	3	3	3
SNP_A-1967418	3	3	3	3	2	2	3	3	3	3	3	3
SNP_A-1969580	3	3	3	3	3	3	3	3	3	3	3	3
SNP_A-4263484	2	2	3	3	1	1	2	2	2	2	3	3
SNP_A-1978185	1	1	1	1	1	1	1	1	1	1	1	1
SNP_A-4264431	2	2	1	1	1	1	1	1	1	1	1	1
SNP_A-1980898	3	3	3	3	3	3	2	2	1	1	3	3
SNP_A-1983139	2	2	1	1	1	1	1	1	1	1	2	2
SNP_A-4265735	3	3	1	1	2	2	1	1	1	1	2	2
SNP_A-1995832	3	3	1	1	3	3	2	2	2	2	2	2
SNP_A-1995893	3	3	1	1	3	3	2	2	2	2	2	2
SNP_A-1997689	3	3	3	3	3	3	3	3	3	3	3	3
SNP_A-1997709	1	1	1	1	1	1	1	1	1	1	1	1
SNP_A-1997896	2	2	1	1	2	2	1	1	1	1	2	2
SNP_A-1997922	2	2	1	1	2	2	2	2	2	2	1	1
SNP_A-2000230	1	1	1	1	2	2	2	2	1	1	1	1
SNP_A-2000332	2	2	2	2	2	2	3	3	2	2	1	1
SNP_A-2000337	1	1	1	1	2	2	2	2	1	1	1	1
SNP_A-2000342	1	1	1	1	1	1	1	1	1	1	1	1
SNP_A-4268173	1	1	1	1	1	1	1	1	1	1	1	1
SNP_A-2002663	1	1	1	1	1	1	1	1	2	2	2	2
SNP_A-2004169	3	3	2	2	3	3	3	3	2	2	2	2
SNP_A-2004249	3	3	3	3	2	2	2	2	2	2	3	3
SNP_A-4268681	1	1	1	1	2	2	2	2	2	2	1	1
SNP_A-2004332	1	1	1	1	3	3	2	3	2	3	1	1
SNP_A-4268770	3	3	3	3	3	3	3	3	3	3	2	2
SNP_A-4268887	3	3	3	3	2	2	3	3	2	2	2	2
SNP_A-2005859	3	3	2	2	2	2	2	2	2	2	3	3
SNP_A-2006248	1	1	1	1	1	1	1	1	1	1	1	1
SNP_A-2007744	3	3	2	2	3	3	3	3	3	3	3	3
SNP_A-2008162	3	3	1	1	3	3	3	3	2	3	2	3
SNP_A-4214867	2	2	2	2	3	3	3	3	3	3	2	2
SNP_A-2010139	3	3	2	2	3	3	2	2	1	1	3	3
SNP_A-2010229	3	3	3	3	3	3	3	3	3	3	3	3
SNP_A-2010253	3	3	3	3	3	3	3	3	3	3	1	1
SNP_A-2010323	3	3	3	3	3	3	3	3	3	3	3	3
SNP_A-2010352	1	1	1	1	1	1	1	1	1	1	1	1
SNP_A-2010356	3	3	3	3	3	3	3	3	3	3	3	3
SNP_A-2010585	1	1	1	1	2	2	1	1	1	1	1	1
SNP_A-4215028	3	3	3	3	3	3	3	3	3	3	3	3
SNP_A-2010849	2	2	2	2	3	3	3	3	2	2	3	3
SNP_A-2010874	1	1	2	2	1	1	1	1	1	1	1	1
SNP_A-2011648	1	1	1	1	1	1	1	1	2	2	2	2
SNP_A-4269697	1	1	1	1	2	2	1	1	1	1	1	1
SNP_A-4269851	1	1	1	1	1	1	1	1	1	1	1	1
SNP_A-4215274	2	2	3	3	3	3	3	3	2	2	3	3
SNP_A-4215277	2	2	1	1	1	1	2	2	1	1	1	1
SNP_A-4215278	1	1	1	1	2	2	1	1	1	1	3	3
SNP_A-2013575	2	2	2	2	1	1	1	1	1	1	1	1
SNP_A-2013771	2	2	3	3	3	3	3	3	3	3	3	3
SNP_A-2015032	1	1	1	1	1	1	1	1	1	1	2	2
SNP_A-2017400	1	1	1	1	1	1	2	2	2	2	1	1
SNP_A-2017468	1	1	1	1	1	1	2	2	2	2	1	1
SNP_A-2017796	1	1	3	2	3	3	2	2	2	2	2	2
SNP_A-2017872	3	3	3	3	3	3	2	2	2	2	3	3
SNP_A-2018492	1	1	1	1	1	1	1	1	1	1	1	1
SNP_A-2020885	3	3	3	2	1	1	2	2	2	2	2	2
SNP_A-4216035	3	3	3	3	3	3	3	3	3	3	3	3
SNP_A-4271791	3	3	3	3	3	3	3	3	2	2	3	3
SNP_A-4274321	3	3	3	3	3	3	3	3	3	3	3	3
SNP_A-2050345	3	3	3	3	3	3	3	3	2	2	3	3
SNP_A-2050839	3	3	3	3	2	2	2	2	2	2	3	3
SNP_A-2071552	1	1	2	2	1	1	3	3	2	2	1	1
SNP_A-2084671	3	3	3	3	3	3	2	2	2	2	3	3
SNP_A-4278685	3	3	3	3	3	3	3	3	3	3	3	3
SNP_A-2094569	3	3	3	3	3	3	3	3	2	2	3	3
SNP_A-2113078	1	1	1	1	1	1	1	1	1	1	1	1
SNP_A-2114462	3	3	3	3	3	3	3	3	2	2	3	3
SNP_A-4224354	2	2	3	3	2	2	2	2	2	2	3	3
SNP_A-2135352	1	1	2	2	1	1	3	3	2	2	1	1
SNP_A-4226297	2	2	2	2	1	1	2	2	1	1	1	1
SNP_A-4285774	3	3	3	3	3	3	3	3	3	3	3	3
SNP_A-4229050	3	3	2	2	2	2	3	3	2	2	1	1
SNP_A-4288043	3	3	3	3	2	2	2	2	3	3	3	3
SNP_A-2175324	3	3	3	3	2	2	3	3	3	3	3	3
SNP_A-4230374	1	1	1	1	1	1	1	1	1	1	1	1
SNP_A-4232404	3	3	2	2	3	3	3	3	2	2	2	2
SNP_A-2209018	1	1	1	1	1	1	1	1	1	1	1	1
SNP_A-2209080	3	3	2	2	3	3	2	2	2	2	2	2
SNP_A-2209125	1	1	2	2	1	1	2	2	2	2	2	2
SNP_A-2216126	1	1	2	2	1	1	3	3	3	3	3	3
SNP_A-2223012	2	2	2	2	2	2	2	2	3	3	3	3
SNP_A-2228303	1	1	1	1	1	1	1	1	1	1	1	1
SNP_A-2237146	3	3	2	2	2	2	2	2	2	2	3	3
SNP_A-4296324	2	2	2	2	2	2	1	1	1	1	3	3
SNP_A-2246233	2	2	3	3	3	3	3	3	3	3	3	3
SNP_A-2271044	3	3	3	3	3	3	2	2	3	3	3	3
SNP_A-2281991	2	2	1	1	1	1	1	1	2	2	2	2
SNP_A-2282048	2	2	3	3	3	3	3	3	2	2	2	2
SNP_A-2282422	2	2	1	1	1	1	1	1	2	2	2	2
SNP_A-2284986	2	2	3	3	3	3	3	3	2	2	2	2
SNP_A-4301459	2	2	1	1	1	1	1	1	2	2	2	2
SNP_A-2297258	1	1	1	1	1	1	1	1	1	1	1	1
SNP_A-2298739	1	1	1	1	1	1	1	1	1	1	1	1
SNP_A-2314487	2	2	1	1	1	1	1	1	1	1	1	1
SNP_A-1782432	1	1	1	1	3	3	3	3	3	3	2	2
SNP_A-1786207	3	3	3	3	3	3	3	3	2	2	3	3
SNP_A-1813299	1	1	2	2	1	1	2	2	1	1	1	1
SNP_A-1815814	1	1	2	2	2	2	1	1	2	2	1	1
SNP_A-4246018	3	3	3	3	3	3	3	3	3	3	3	3
SNP_A-1824707	3	3	2	2	2	2	1	1	1	1	1	1
SNP_A-1837971	2	2	1	1	2	2	2	2	1	1	2	2
SNP_A-4249172	2	2	2	2	3	3	2	2	2	2	3	3
SNP_A-1865709	1	1	1	1	2	2	3	3	1	1	2	2
SNP_A-4251730	3	3	2	2	3	3	2	2	2	2	3	3
SNP_A-1874484	1	1	1	1	2	2	1	1	1	1	1	1
SNP_A-1876955	2	2	3	3	3	3	2	2	3	3	3	3
SNP_A-4252316	1	1	1	1	1	1	2	2	1	1	1	1
SNP_A-1888291	1	1	1	1	1	1	1	1	1	1	1	1
SNP_A-1891824	1	1	1	1	1	1	1	1	1	1	1	1
SNP_A-1909176	3	3	3	3	3	3	3	3	2	2	3	3
SNP_A-1909471	1	1	1	1	3	3	1	1	2	2	3	3
SNP_A-4256704	3	3	3	3	2	2	3	3	3	3	2	2
SNP_A-1962425	3	3	3	3	3	3	2	2	2	2	2	2
SNP_A-1962430	1	1	3	3	1	1	2	2	1	1	1	1
SNP_A-1962434	1	1	1	1	1	1	1	1	2	2	1	1
SNP_A-1962444	1	1	1	1	1	1	1	1	1	1	1	1
SNP_A-1962449	2	2	1	1	1	1	1	1	1	1	1	1
SNP_A-4261825	1	1	1	1	1	1	1	1	2	2	2	2
SNP_A-1962705	1	1	1	1	1	1	1	1	2	2	2	2
SNP_A-4261838	1	1	1	1	1	1	1	1	1	1	1	1
SNP_A-4261839	1	1	1	1	1	1	1	1	2	2	2	2
SNP_A-4261858	2	2	3	3	3	3	3	3	2	2	2	2
SNP_A-4261860	1	1	1	1	1	1	1	1	2	2	2	2
SNP_A-1962823	3	3	3	3	3	3	3	3	3	3	3	3
SNP_A-1962888	3	3	1	1	2	1	2	2	3	3	3	3
SNP_A-1962943	1	1	1	1	1	1	1	1	2	2	2	2
SNP_A-1963088	1	1	1	1	1	1	1	1	1	1	1	1
SNP_A-4261980	1	1	1	1	2	2	1	1	1	1	1	1
SNP_A-4262002	3	3	2	2	1	1	3	3	3	3	1	1
SNP_A-4262012	3	3	2	2	2	2	3	3	3	3	2	2
SNP_A-4262013	1	1	1	1	2	2	1	1	1	1	1	1
SNP_A-1963782	2	2	3	3	3	3	3	3	3	3	3	3
SNP_A-1964175	3	3	2	2	2	2	1	2	3	3	3	3
SNP_A-4208237	1	1	2	2	1	1	1	1	1	1	1	1
SNP_A-1964177	1	1	2	2	1	1	1	1	1	1	1	1
SNP_A-4208238	3	3	3	3	3	3	2	2	2	2	3	3
SNP_A-1964179	1	1	2	2	1	1	1	1	1	1	1	1
SNP_A-1964188	1	1	2	2	1	1	1	1	1	1	1	1
SNP_A-1964422	3	3	3	3	2	2	2	2	3	3	3	3
SNP_A-1964439	1	1	3	3	3	3	2	2	2	2	2	2
SNP_A-4262207	2	2	3	3	2	2	3	3	3	3	3	3
SNP_A-1964773	3	3	2	2	2	2	2	2	1	1	3	3
SNP_A-1964784	1	1	1	1	1	1	1	1	2	2	1	1
SNP_A-1964807	3	3	2	2	1	1	2	2	2	2	2	2
SNP_A-1964844	3	3	2	2	1	1	2	2	2	2	2	2
SNP_A-1964848	1	1	2	2	3	3	2	2	2	2	2	2
SNP_A-4262226	1	1	2	2	3	3	2	2	2	2	2	2
SNP_A-4262229	3	3	2	2	3	3	3	3	3	3	3	3
SNP_A-1964869	3	3	2	2	3	3	3	3	3	3	3	3
SNP_A-1964871	3	3	3	3	2	2	3	3	3	3	2	2
SNP_A-1964931	1	1	1	1	1	1	1	1	1	1	1	1
SNP_A-1965048	1	1	1	1	1	1	1	1	2	2	1	1
SNP_A-4144407	1	1	1	1	1	1	1	1	1	1	1	1
SNP_A-1965531	3	3	2	2	1	1	3	3	3	3	2	2
SNP_A-4262334	1	1	1	1	1	1	1	1	1	1	1	1
SNP_A-4208447	3	3	2	2	1	1	3	3	3	3	1	1
SNP_A-4262336	2	2	2	2	3	3	1	1	1	1	2	2
SNP_A-1965554	1	1	2	2	3	3	1	1	1	1	3	3
SNP_A-1965742	1	1	1	1	1	1	1	1	1	1	2	2
SNP_A-1966143	1	1	1	1	1	1	1	1	1	1	3	3
SNP_A-1966211	2	2	2	2	2	2	2	2	3	3	1	1
SNP_A-1966968	3	3	3	3	3	3	3	3	3	3	3	3
SNP_A-1967181	2	2	3	3	2	1	3	3	2	2	1	1
SNP_A-4262601	3	3	3	3	3	3	2	2	3	3	3	3
SNP_A-4262635	3	3	3	3	3	3	3	3	3	3	2	2
SNP_A-1967420	3	3	2	2	3	3	3	3	1	1	3	3
SNP_A-1967490	1	1	1	1	1	1	1	1	1	1	1	1
SNP_A-1967671	2	2	1	1	2	2	2	2	1	1	2	2
SNP_A-4208786	2	2	1	1	2	1	2	2	1	1	2	2
SNP_A-1967729	2	2	2	2	3	3	3	3	1	1	3	3
SNP_A-1968003	3	3	3	3	3	3	3	3	3	3	3	3
SNP_A-1968149	2	2	2	2	1	1	1	1	1	1	2	2
SNP_A-1968618	2	2	2	2	2	2	3	3	2	2	3	3
SNP_A-1968654	2	2	2	2	3	3	3	3	3	3	3	3
SNP_A-1968662	2	2	2	2	2	2	2	2	2	2	1	1
SNP_A-1968707	2	2	2	2	3	3	3	3	3	3	3	3
SNP_A-1968709	2	2	2	2	3	3	3	3	3	3	3	3
SNP_A-1968837	1	1	2	2	1	1	1	1	1	1	1	1
SNP_A-1968843	1	1	1	1	1	1	1	1	1	1	1	1
SNP_A-1973718	2	2	2	2	1	1	2	2	3	3	2	2
SNP_A-1973774	3	3	2	2	2	2	3	3	1	1	2	2
SNP_A-1973846	1	1	1	1	1	1	1	1	1	1	1	1
SNP_A-1973904	2	2	3	3	2	2	3	3	2	2	1	1
SNP_A-1974000	2	2	3	3	2	2	2	2	3	3	3	3
SNP_A-1974062	3	3	3	3	3	3	3	3	3	3	2	2
SNP_A-1974257	3	3	2	2	3	3	3	3	3	3	2	2
SNP_A-4263762	3	3	2	2	3	3	1	1	3	3	2	3
SNP_A-1974690	1	1	1	1	1	1	1	1	1	1	1	1
SNP_A-1975105	3	3	3	3	3	3	2	2	3	3	3	3
SNP_A-1975121	3	3	3	3	3	3	2	2	3	3	3	3
SNP_A-1975375	3	3	3	3	3	3	2	2	2	2	3	3
SNP_A-1975403	3	3	3	3	3	3	2	2	2	2	3	3
SNP_A-4263929	1	1	1	1	1	1	2	2	3	3	2	2
SNP_A-1975779	1	1	1	1	2	2	1	1	1	1	1	1
SNP_A-1976008	2	2	1	1	1	1	1	1	1	1	1	1
SNP_A-4209947	3	3	3	3	3	3	3	3	1	1	2	2
SNP_A-4209972	1	1	2	2	1	1	1	1	1	1	1	1
SNP_A-1976158	3	3	3	3	3	3	3	3	3	3	3	3
SNP_A-1976162	3	3	3	3	3	3	3	3	1	1	3	3
SNP_A-4209978	1	1	1	1	1	1	1	1	1	1	1	1
SNP_A-1976364	2	2	1	1	1	1	1	1	1	1	1	1
SNP_A-1976404	1	1	1	1	1	1	1	1	1	1	1	1
SNP_A-1976422	1	1	1	1	1	1	1	1	1	1	1	1
SNP_A-1976424	2	2	1	1	1	1	3	3	3	3	2	2
SNP_A-1976613	1	1	2	2	1	1	2	2	1	1	1	1
SNP_A-1976617	1	1	1	1	1	1	2	2	2	2	2	2
SNP_A-4264159	3	3	3	3	3	3	3	3	3	3	1	1
SNP_A-1977236	2	2	1	1	1	1	2	2	1	1	1	1
SNP_A-1977240	2	2	3	3	3	3	3	3	3	3	3	3
SNP_A-4210260	3	3	2	2	3	3	2	2	2	2	3	3
SNP_A-1977516	1	1	2	2	1	1	3	3	2	2	1	1
SNP_A-1977607	2	2	3	3	3	3	1	2	3	3	2	2
SNP_A-1977652	2	2	2	2	2	2	1	1	2	2	2	2
SNP_A-1977655	3	3	2	2	3	3	3	3	2	2	3	3
SNP_A-1978191	3	3	3	3	3	3	3	3	3	3	3	3
SNP_A-1978782	3	3	2	2	3	3	3	3	3	3	2	2
SNP_A-1978962	2	2	1	1	1	1	1	1	1	1	2	2
SNP_A-4210544	2	2	2	2	2	2	2	2	1	1	2	2
SNP_A-1979016	1	1	1	1	1	1	1	1	1	1	1	1
SNP_A-1979267	2	2	1	1	1	1	1	1	2	2	2	2
SNP_A-4264532	1	1	1	1	1	1	1	1	1	1	1	1
SNP_A-4264655	1	1	2	2	1	1	1	1	2	2	3	3
SNP_A-1980084	3	3	1	1	1	1	1	1	1	1	1	1
SNP_A-1980137	1	1	2	2	1	1	2	2	2	2	2	2
SNP_A-4264681	2	2	1	1	1	1	1	1	2	2	1	1
SNP_A-1980754	3	3	3	3	3	3	3	3	3	3	3	3
SNP_A-1980759	3	3	1	2	3	3	3	3	3	3	3	3
SNP_A-1980834	3	3	2	2	2	2	1	1	2	2	1	1
SNP_A-1980858	3	3	2	2	3	3	3	3	3	3	3	3
SNP_A-1980865	1	1	1	1	1	1	1	1	1	1	1	1
SNP_A-1980974	3	3	3	3	3	3	3	3	2	2	3	3
SNP_A-1981115	2	2	3	3	2	2	1	1	3	3	2	2
SNP_A-1981197	2	2	2	2	2	2	2	2	2	2	2	2
SNP_A-1981535	3	3	3	3	3	3	3	3	3	3	3	3
SNP_A-1981553	2	2	3	3	2	2	3	3	2	2	3	3
SNP_A-1981666	1	1	1	1	2	2	1	1	1	1	1	1
SNP_A-1981699	1	1	2	2	2	2	1	1	1	1	2	2
SNP_A-1981724	3	3	3	3	3	3	3	3	3	3	3	3
SNP_A-1981779	1	1	3	3	2	2	3	3	3	3	3	3
SNP_A-4210974	2	2	2	2	1	1	1	1	1	1	1	1
SNP_A-1981793	2	2	2	2	1	1	1	1	1	1	1	1
SNP_A-4264936	2	2	2	2	2	2	1	1	1	1	1	1
SNP_A-1982076	2	2	3	3	3	3	3	3	2	2	2	2
SNP_A-1982185	2	2	3	3	3	3	2	2	2	2	3	3
SNP_A-1982223	1	1	3	3	2	2	1	1	2	2	3	3
SNP_A-1982428	2	2	3	3	3	3	3	3	1	1	3	3
SNP_A-4265045	3	3	1	1	1	1	2	2	1	1	1	1
SNP_A-1982432	1	1	1	1	1	1	1	1	3	3	1	1
SNP_A-4211081	1	1	1	1	1	1	1	1	3	3	1	1
SNP_A-1982515	2	2	2	2	3	3	2	2	2	2	1	1
SNP_A-1982894	2	2	2	2	3	3	1	1	2	2	2	2
SNP_A-4265165	2	2	2	2	2	2	3	3	1	1	1	1
SNP_A-1983308	3	3	3	3	3	3	3	3	3	3	3	3
SNP_A-1983366	2	2	2	2	1	1	2	2	1	1	1	1
SNP_A-1983371	2	2	2	2	3	3	2	2	3	3	3	3
SNP_A-1983373	2	2	2	2	1	1	3	3	1	1	1	1
SNP_A-1983501	1	1	1	1	1	1	2	2	1	1	1	1
SNP_A-4265208	2	2	2	2	1	1	2	2	1	1	1	1
SNP_A-1983522	2	2	2	2	1	1	3	3	1	1	1	1
SNP_A-4265301	1	1	1	1	1	1	1	1	1	1	1	1
SNP_A-1984828	1	1	1	1	1	1	2	2	1	1	1	1
SNP_A-1984920	2	2	3	3	2	2	3	3	2	2	2	2
SNP_A-1984968	1	1	1	1	1	1	1	1	1	1	1	1
SNP_A-4211511	2	2	3	3	2	2	1	1	2	2	2	2
SNP_A-1985631	3	3	2	2	3	3	3	3	3	3	2	2
SNP_A-4265596	3	3	3	3	1	1	2	2	3	3	3	3
SNP_A-4211687	1	1	1	1	1	1	1	1	1	1	1	1
SNP_A-4211688	3	3	3	3	3	3	3	3	3	3	3	3
SNP_A-4265706	3	3	3	3	3	3	3	3	3	3	3	3
SNP_A-1986327	2	2	2	2	1	1	1	1	1	1	3	3
SNP_A-4211741	1	1	1	1	1	1	1	1	1	1	1	1
SNP_A-4265764	3	3	3	3	3	3	3	3	2	2	3	3
SNP_A-4265789	3	3	3	3	3	3	3	3	3	3	3	3
SNP_A-1986940	2	2	3	3	1	1	3	3	3	3	2	2
SNP_A-4211866	2	2	2	1	3	3	2	2	2	2	3	3
SNP_A-1987200	3	3	3	3	3	3	3	3	3	3	3	3
SNP_A-1987308	2	2	3	3	1	1	3	3	3	3	3	3
SNP_A-1987569	2	2	2	2	1	1	3	3	3	3	2	2
SNP_A-1988454	1	1	1	1	1	1	1	1	1	1	1	1
SNP_A-1988572	2	2	3	3	1	1	3	3	2	2	3	3
SNP_A-1988590	3	3	3	3	3	3	3	3	2	2	2	2
SNP_A-1988634	3	3	3	3	3	3	3	3	2	2	3	3
SNP_A-1988848	3	3	3	3	3	3	3	3	3	3	3	3
SNP_A-4266244	3	3	3	3	3	3	3	3	2	2	3	3
SNP_A-1990046	1	1	1	1	1	1	2	2	2	2	1	1
SNP_A-4266413	1	1	1	1	2	2	1	1	1	1	1	1
SNP_A-1990391	1	1	1	1	1	1	1	1	1	1	1	1
SNP_A-1990576	3	3	3	3	3	3	3	3	3	3	3	3
SNP_A-1990582	3	3	2	2	3	3	3	3	3	3	3	3
SNP_A-1990691	1	1	1	1	2	2	2	2	1	1	1	1
SNP_A-1990692	2	2	1	1	1	1	2	2	2	2	2	2
SNP_A-1990698	3	3	2	2	3	3	3	3	3	3	3	3
SNP_A-4266508	3	3	3	3	3	3	3	3	3	3	3	3
SNP_A-1990965	1	1	1	1	2	2	1	1	1	1	1	1
SNP_A-1991336	1	1	2	2	1	1	2	2	1	1	2	2
SNP_A-1991496	2	2	2	2	2	2	2	2	2	2	2	2
SNP_A-1991519	2	2	3	3	3	3	3	3	2	2	2	2
SNP_A-1991717	2	2	2	2	3	3	3	3	3	3	2	2
SNP_A-1991727	2	2	2	2	2	2	3	3	2	2	2	2
SNP_A-1991729	2	2	2	2	2	2	3	3	2	2	2	2
SNP_A-1991843	2	2	1	1	2	2	2	2	3	3	2	2
SNP_A-4212730	3	3	3	3	2	1	2	2	2	2	3	3
SNP_A-1991848	2	2	1	1	1	1	1	1	2	2	2	2
SNP_A-4212732	2	2	3	3	3	3	3	3	2	2	2	2
SNP_A-1991852	2	2	1	1	1	1	1	1	2	2	2	2
SNP_A-4212733	2	2	1	1	1	1	1	1	2	2	2	2
SNP_A-1992961	3	3	2	2	3	3	2	2	3	3	3	3
SNP_A-1993283	1	1	1	1	1	1	1	1	1	1	1	1
SNP_A-1993284	3	3	2	2	3	3	3	3	3	3	2	2
SNP_A-1993447	2	2	2	2	2	2	2	2	2	2	2	2
SNP_A-1993552	1	1	1	1	2	2	1	1	2	2	2	2
SNP_A-1993672	1	1	1	1	1	1	1	1	1	1	1	1
SNP_A-1993768	1	1	2	2	1	1	1	1	1	1	1	1
SNP_A-1993774	1	1	1	1	1	1	1	1	1	1	1	1
SNP_A-1993778	1	1	2	2	1	1	1	1	1	1	1	1
SNP_A-1993867	1	1	1	1	1	1	1	1	1	1	1	1
SNP_A-1993958	3	3	3	3	2	2	2	2	2	2	3	3
SNP_A-1994601	1	1	1	1	1	1	1	1	1	1	1	1
SNP_A-1994677	3	3	3	3	3	3	3	3	3	3	3	3
SNP_A-1994681	3	3	3	3	3	3	3	3	3	3	3	3
SNP_A-1994683	3	3	3	3	3	3	3	3	3	3	3	3
SNP_A-1994934	3	3	3	3	2	2	3	3	3	3	3	3
SNP_A-1995107	2	2	2	2	3	3	2	2	3	3	3	3
SNP_A-1995655	2	2	3	3	3	3	3	3	3	3	2	2
SNP_A-1995667	3	3	3	3	3	3	3	3	3	3	3	3
SNP_A-1996032	1	1	1	1	1	1	1	1	1	1	1	1
SNP_A-1996494	3	3	3	3	3	3	3	3	3	3	3	3
SNP_A-1997445	2	2	1	1	1	1	1	1	1	1	1	1
SNP_A-4267642	2	2	1	1	1	1	1	1	1	1	1	1
SNP_A-1997583	3	3	3	3	2	2	2	2	1	1	3	3
SNP_A-1997906	1	1	2	2	3	3	3	3	3	3	2	2
SNP_A-4267849	2	2	3	3	3	3	3	3	3	3	3	3
SNP_A-4267909	3	3	1	1	1	1	1	1	2	2	3	3
SNP_A-1999336	3	3	2	2	1	1	2	2	2	2	3	3
SNP_A-1999548	1	1	1	1	2	2	1	1	1	1	1	1
SNP_A-1999600	3	3	3	3	2	2	3	3	3	3	3	3
SNP_A-4267983	1	1	1	1	2	2	3	3	1	1	2	2
SNP_A-1999604	2	2	2	2	2	1	1	1	2	2	2	2
SNP_A-4267992	2	2	1	1	2	3	1	1	1	1	1	1
SNP_A-1999703	2	2	1	1	2	2	1	1	1	1	2	2
SNP_A-1999704	2	2	3	3	2	2	3	3	3	3	3	3
SNP_A-4268003	3	3	3	3	3	3	3	3	3	3	3	3
SNP_A-1999773	2	2	2	2	2	2	2	2	3	3	3	3
SNP_A-4213882	2	2	1	1	1	1	2	2	1	1	2	2
SNP_A-4268018	1	1	1	1	2	2	1	1	1	1	1	1
SNP_A-4268024	3	3	3	3	2	2	3	3	3	3	2	2
SNP_A-1999832	1	1	1	1	1	1	1	1	1	1	1	1
SNP_A-1999878	1	1	1	1	2	2	2	2	1	1	2	2
SNP_A-1999882	3	3	3	3	2	2	2	2	3	3	2	2
SNP_A-1999912	2	2	2	2	1	1	2	2	1	1	2	2
SNP_A-1999915	1	1	2	2	1	1	2	2	1	1	2	2
SNP_A-2000074	3	3	3	3	3	3	3	3	3	3	3	3
SNP_A-4268066	1	1	1	1	2	2	1	1	2	2	2	2
SNP_A-4268071	2	2	2	2	3	3	1	1	3	3	2	2
SNP_A-2000252	3	3	3	3	2	2	3	3	1	1	2	2
SNP_A-2000268	3	3	3	3	2	2	3	3	1	1	2	2
SNP_A-2000348	3	3	3	3	2	2	2	2	2	2	3	3
SNP_A-4268099	2	2	3	3	1	1	2	2	2	2	3	3
SNP_A-4268100	2	2	1	1	2	2	1	1	1	1	1	1
SNP_A-4213952	1	1	1	1	1	1	1	1	1	1	1	1
SNP_A-4268146	1	1	1	1	1	1	1	1	1	1	1	1
SNP_A-2000792	3	3	2	2	3	3	2	2	2	2	2	2
SNP_A-2001009	1	1	1	1	1	1	1	1	1	1	1	1
SNP_A-4214029	3	3	2	2	3	3	3	3	2	2	3	3
SNP_A-2001162	3	3	3	3	2	2	1	1	3	3	2	2
SNP_A-2001229	1	1	2	3	3	3	3	3	3	3	1	1
SNP_A-4214045	3	3	3	3	3	3	2	2	2	2	3	3
SNP_A-2001334	3	3	2	2	3	3	3	3	3	3	3	3
SNP_A-2001361	2	2	2	2	1	1	2	2	2	2	1	1
SNP_A-4172918	3	3	3	3	3	3	3	3	3	3	3	3
SNP_A-2001405	3	3	3	3	3	3	3	3	3	3	3	3
SNP_A-4214079	2	2	3	3	2	2	1	1	2	2	2	2
SNP_A-2001454	2	2	1	1	2	2	3	3	2	2	2	2
SNP_A-2001478	2	2	1	1	2	2	3	3	2	2	2	2
SNP_A-2001480	3	3	2	2	3	3	3	3	2	2	3	3
SNP_A-2001481	2	2	1	1	2	2	3	3	2	2	2	2
SNP_A-2001483	2	2	1	1	2	2	3	3	2	2	2	2
SNP_A-2001522	2	2	3	3	2	2	1	1	2	2	2	2
SNP_A-4214089	2	2	3	3	2	2	1	1	2	2	2	2
SNP_A-2001548	1	1	2	2	1	1	1	1	2	2	1	1
SNP_A-2001589	2	2	3	3	2	2	1	1	2	2	2	2
SNP_A-2001596	2	2	1	1	2	2	1	1	2	2	1	1
SNP_A-2001598	2	2	1	1	2	2	1	1	2	2	1	1
SNP_A-2001642	2	2	2	2	2	2	2	2	1	1	1	1
SNP_A-2001643	1	1	1	1	1	1	1	1	1	1	1	1
SNP_A-4268291	1	1	1	1	1	1	1	1	1	1	1	1
SNP_A-2001684	3	3	3	3	3	3	3	3	3	3	3	3
SNP_A-4214101	1	1	1	1	1	1	2	2	1	1	1	1
SNP_A-2001700	3	3	3	3	3	3	3	3	3	3	3	3
SNP_A-2001835	2	2	2	2	3	3	2	2	2	2	2	2
SNP_A-2001840	2	2	2	2	1	1	2	2	2	2	2	2
SNP_A-4214120	2	2	2	2	3	3	3	3	2	2	2	2
SNP_A-2001896	2	2	3	3	3	3	3	3	3	3	3	3
SNP_A-4268333	1	1	1	1	1	1	1	1	1	1	1	1
SNP_A-2002002	2	2	2	2	1	1	3	3	1	1	1	1
SNP_A-4173289	1	1	1	1	2	2	1	1	2	2	3	3
SNP_A-2002016	2	2	3	3	2	2	2	2	2	2	1	1
SNP_A-2002017	2	2	1	1	2	2	2	2	2	2	3	3
SNP_A-2002028	2	2	3	3	2	2	2	2	2	2	1	1
SNP_A-2002078	3	3	3	3	3	3	3	3	3	3	3	3
SNP_A-4268351	3	3	2	2	2	2	2	2	1	1	3	3
SNP_A-4268352	3	3	3	3	3	3	3	3	3	3	3	3
SNP_A-2002107	3	3	2	2	3	3	3	3	3	3	3	3
SNP_A-2002117	1	1	2	2	2	2	2	2	3	3	1	1
SNP_A-2002141	3	3	3	3	3	3	3	3	3	3	3	3
SNP_A-2002170	3	3	2	2	2	2	2	2	3	3	2	2
SNP_A-4268367	1	1	2	2	1	1	2	2	1	1	1	1
SNP_A-4214173	2	2	1	1	2	2	2	2	1	1	1	1
SNP_A-2002359	1	1	1	1	1	1	1	1	1	1	1	1
SNP_A-4268427	3	3	3	3	2	2	3	3	2	2	3	3
SNP_A-2002623	1	1	1	1	1	1	1	1	1	1	1	1
SNP_A-2002677	3	3	3	3	3	3	3	3	3	3	3	3
SNP_A-4214219	1	1	1	1	1	1	1	1	1	1	1	1
SNP_A-2002829	3	3	3	3	3	3	3	3	3	3	3	3
SNP_A-2002836	3	3	3	3	3	3	3	3	3	3	3	3
SNP_A-2002892	3	3	3	3	2	2	3	3	3	3	3	3
SNP_A-2002903	1	1	1	1	1	1	1	1	1	1	1	1
SNP_A-2002914	3	3	3	3	3	3	3	3	3	3	3	3
SNP_A-2003050	3	3	3	3	3	3	3	3	3	3	3	3
SNP_A-4268502	1	1	1	1	2	2	1	1	1	1	1	1
SNP_A-2003219	2	2	1	1	2	2	3	3	1	1	2	2
SNP_A-2003220	2	2	3	3	2	2	1	1	3	3	2	2
SNP_A-2003231	2	2	2	2	2	2	1	1	1	1	1	1
SNP_A-2003273	1	1	1	1	1	1	1	1	2	2	2	2
SNP_A-4268527	2	2	1	1	1	1	1	1	1	1	1	1
SNP_A-4268528	2	2	1	1	2	2	1	1	1	1	2	2
SNP_A-4214293	2	2	2	2	2	2	1	1	1	1	1	1
SNP_A-4214300	3	3	3	3	3	3	3	3	3	3	3	3
SNP_A-2003606	3	3	3	3	3	3	3	3	3	3	3	3
SNP_A-4214318	1	1	1	1	1	1	1	1	1	1	1	1
SNP_A-2003715	1	1	1	1	1	1	1	1	1	1	1	1
SNP_A-2003852	2	2	3	3	2	2	3	3	3	3	2	2
SNP_A-4268614	2	2	1	1	2	2	1	1	1	1	2	2
SNP_A-2003872	1	1	1	1	1	1	1	1	1	1	1	1
SNP_A-4268620	1	1	1	1	1	1	1	1	1	1	1	1
SNP_A-4268621	2	2	3	3	3	3	2	2	2	2	3	3
SNP_A-2004000	2	2	1	1	2	2	2	2	1	1	1	1
SNP_A-2004001	3	3	2	2	3	2	3	3	2	2	1	1
SNP_A-2004008	2	2	2	2	2	2	2	2	2	2	1	1
SNP_A-2004022	1	1	1	1	1	1	1	1	1	1	1	1
SNP_A-2004023	1	1	1	1	1	1	1	1	1	1	1	1
SNP_A-2004107	3	3	2	2	2	2	1	1	2	2	1	1
SNP_A-2004110	1	1	2	2	2	2	3	3	2	2	3	3
SNP_A-2004160	1	1	2	2	2	2	3	3	3	3	3	3
SNP_A-4268662	3	3	2	2	2	2	1	1	1	1	1	1
SNP_A-2004296	1	1	2	2	3	3	1	1	1	1	2	2
SNP_A-2004355	1	1	1	1	3	3	1	1	1	1	1	1
SNP_A-4268708	2	2	1	1	1	1	1	1	1	1	2	2
SNP_A-2004660	1	1	1	1	1	1	1	1	1	1	2	2
SNP_A-4268748	3	3	3	3	3	3	3	3	3	3	2	2
SNP_A-2004670	1	1	1	1	1	1	1	1	1	1	1	1
SNP_A-2004673	3	3	3	3	3	3	3	3	3	3	2	2
SNP_A-2004734	3	3	3	3	3	3	3	3	3	3	2	2
SNP_A-2004873	3	3	3	3	3	3	3	3	3	3	3	3
SNP_A-4268775	2	2	2	2	2	2	3	3	1	1	2	2
SNP_A-2004879	1	1	1	1	1	1	2	2	2	2	1	1
SNP_A-4268781	1	1	1	1	1	1	2	2	2	2	1	1
SNP_A-4214427	3	3	3	3	3	3	2	2	2	2	3	3
SNP_A-4214434	1	1	1	1	1	1	1	1	3	3	2	2
SNP_A-2005029	3	3	3	3	3	3	2	2	3	3	3	3
SNP_A-2005128	2	2	2	2	1	1	2	2	2	2	2	2
SNP_A-2005154	2	2	1	1	2	2	3	3	2	2	2	2
SNP_A-2005175	1	1	1	1	2	2	2	2	1	1	2	2
SNP_A-4214461	2	2	1	1	1	1	1	1	1	1	1	1
SNP_A-2005185	2	2	3	3	3	3	3	3	3	3	3	3
SNP_A-2005326	1	1	1	1	1	1	1	1	1	1	1	1
SNP_A-4268837	1	1	1	1	1	1	1	1	1	1	1	1
SNP_A-4268839	2	2	3	3	2	2	3	3	3	3	2	2
SNP_A-2005344	2	2	3	3	2	2	3	3	3	3	2	2
SNP_A-4268846	3	3	3	3	3	3	3	3	3	3	3	3
SNP_A-2005454	1	1	1	1	1	1	1	1	1	1	1	1
SNP_A-2005465	3	3	3	3	3	3	3	3	3	3	3	3
SNP_A-2005505	2	2	1	1	2	2	2	2	1	1	2	2
SNP_A-2005508	1	1	1	1	1	1	1	1	1	1	1	1
SNP_A-2005721	2	2	3	3	3	3	2	2	3	3	2	2
SNP_A-2005757	3	3	3	3	2	2	3	3	3	3	2	2
SNP_A-2005809	3	3	1	1	2	2	2	2	1	1	2	2
SNP_A-2005820	1	1	1	1	1	1	1	1	1	1	1	1
SNP_A-2005842	1	1	1	1	1	1	1	1	1	1	1	1
SNP_A-2005875	2	2	3	3	3	3	3	3	3	3	2	2
SNP_A-2005975	3	3	3	3	2	2	1	1	2	2	1	1
SNP_A-4268921	2	2	2	2	2	2	3	3	3	3	2	2
SNP_A-2005982	2	2	1	1	1	1	1	1	1	1	1	1
SNP_A-2005985	2	2	2	2	2	2	3	3	3	3	2	2
SNP_A-2006054	3	3	3	3	3	3	2	2	3	3	3	3
SNP_A-2006063	3	3	3	3	3	3	2	2	3	3	3	3
SNP_A-2006064	1	1	1	1	1	1	2	2	1	1	1	1
SNP_A-4268949	3	3	3	3	3	3	3	3	2	2	3	3
SNP_A-2006127	2	2	2	2	3	3	2	2	2	2	3	3
SNP_A-4268960	2	2	1	1	1	1	1	1	1	1	2	2
SNP_A-4268961	2	2	3	3	3	3	3	3	3	3	2	2
SNP_A-2006219	2	2	1	1	3	3	2	2	2	2	2	2
SNP_A-2006311	1	1	1	1	1	1	1	1	1	1	2	2
SNP_A-4268976	2	2	1	1	1	1	1	1	1	1	1	1
SNP_A-2006328	3	3	3	3	1	1	2	2	2	2	3	3
SNP_A-2006329	1	1	1	1	3	3	2	2	2	2	2	2
SNP_A-2006341	2	2	1	1	2	2	2	2	1	1	1	1
SNP_A-4214568	2	2	1	1	3	3	3	3	2	2	2	2
SNP_A-2006365	2	2	3	3	1	1	1	1	2	2	2	2
SNP_A-2006373	2	2	1	1	1	1	1	1	1	1	2	2
SNP_A-2006386	2	2	3	3	3	3	3	3	3	3	3	3
SNP_A-4268985	2	2	3	3	1	1	1	2	1	1	1	1
SNP_A-4268988	2	2	1	1	1	1	1	1	2	2	1	1
SNP_A-4175804	3	3	1	1	3	3	3	3	3	3	3	3
SNP_A-2006468	2	2	3	3	3	3	3	3	2	2	3	3
SNP_A-2006494	2	2	1	1	2	2	1	1	1	1	2	2
SNP_A-2006535	3	3	1	1	1	1	1	1	1	1	1	1
SNP_A-2006590	3	3	2	2	2	2	3	3	2	2	3	3
SNP_A-2006591	3	3	2	2	2	2	3	3	2	2	3	3
SNP_A-2006618	3	3	1	1	1	1	3	3	1	1	3	3
SNP_A-2006630	1	1	1	1	1	1	1	1	1	1	2	2
SNP_A-4269020	1	1	1	1	1	1	3	3	1	1	1	1
SNP_A-2006691	3	3	1	1	1	1	3	3	1	1	2	2
SNP_A-2006729	1	1	3	3	3	3	1	1	3	3	2	2
SNP_A-4269046	1	1	2	2	2	2	1	1	1	1	1	1
SNP_A-2006807	3	3	3	3	3	3	3	3	3	3	3	3
SNP_A-2006810	1	1	1	1	1	1	1	1	1	1	1	1
SNP_A-4269057	2	2	3	3	3	3	2	2	2	2	2	2
SNP_A-2006860	2	2	3	3	2	2	3	3	2	2	2	2
SNP_A-4269060	1	1	3	3	2	2	2	2	1	1	1	1
SNP_A-2006890	1	1	1	1	1	1	2	2	1	1	1	1
SNP_A-2006899	3	3	1	1	2	2	2	2	2	2	3	3
SNP_A-4269064	1	1	1	1	1	1	2	2	1	1	1	1
SNP_A-2006906	1	1	1	1	1	1	2	2	1	1	1	1
SNP_A-4214620	3	3	3	3	3	3	2	2	3	3	3	3
SNP_A-4214625	1	1	1	1	1	1	1	1	1	1	1	1
SNP_A-4269078	3	3	3	3	2	2	2	2	2	2	1	1
SNP_A-4269085	1	1	2	2	2	2	2	2	1	1	1	1
SNP_A-4269086	1	1	1	1	1	1	1	1	1	1	1	1
SNP_A-2007104	1	1	1	1	1	1	1	1	1	1	1	1
SNP_A-2007137	3	3	3	3	3	3	3	3	3	3	3	3
SNP_A-4269102	3	3	3	3	3	3	3	3	3	3	3	3
SNP_A-2007193	2	2	1	1	1	1	2	2	1	1	2	2
SNP_A-2007230	3	3	3	3	2	2	2	2	3	3	3	3
SNP_A-2007268	3	3	3	3	3	3	2	2	3	3	3	3
SNP_A-4214652	3	3	3	3	3	3	2	2	3	3	3	3
SNP_A-4269131	3	3	3	3	3	3	3	3	3	3	1	1
SNP_A-2007578	3	3	3	3	3	3	3	3	3	3	3	3
SNP_A-4214680	1	1	1	1	1	1	1	1	1	1	1	1
SNP_A-4269163	2	2	2	2	3	3	1	1	2	2	3	3
SNP_A-2007635	3	3	2	2	3	3	3	3	2	2	2	2
SNP_A-2007650	1	1	1	1	1	1	1	1	2	2	1	1
SNP_A-2007652	3	3	3	3	3	3	3	3	2	2	3	3
SNP_A-2007662	3	3	3	3	3	3	3	3	2	2	3	3
SNP_A-4214690	2	2	1	1	2	2	1	1	2	2	1	1
SNP_A-2007710	3	3	3	3	3	3	3	3	2	2	3	3
SNP_A-4269199	3	3	3	3	2	2	3	3	2	2	1	1
SNP_A-2007838	3	3	3	3	3	3	3	3	3	3	3	3
SNP_A-2007874	3	3	3	3	3	3	3	3	3	3	3	3
SNP_A-2007938	3	3	1	1	3	3	2	2	2	2	3	3
SNP_A-2007955	2	2	1	1	3	3	1	1	2	2	2	2
SNP_A-2008126	1	1	1	1	1	1	1	1	1	1	1	1
SNP_A-4214736	1	1	1	1	1	1	1	1	1	1	1	1
SNP_A-2008128	1	1	1	1	1	1	1	1	1	1	1	1
SNP_A-2008156	1	1	3	3	1	1	2	2	1	1	2	2
SNP_A-2008462	1	1	1	1	1	1	1	1	1	1	1	1
SNP_A-2008509	3	3	3	3	2	2	3	3	2	2	2	2
SNP_A-4269309	2	2	1	1	2	2	1	1	2	2	1	1
SNP_A-2008718	2	2	3	3	3	3	2	2	3	3	1	1
SNP_A-2008796	1	1	1	1	1	1	1	1	1	1	1	1
SNP_A-4269340	3	3	3	3	3	3	1	1	3	3	2	2
SNP_A-2008888	1	1	1	1	1	1	1	1	1	1	1	1
SNP_A-2009070	2	2	2	2	1	1	2	2	1	1	1	1
SNP_A-2009117	2	2	3	2	3	3	3	3	1	1	1	1
SNP_A-2009118	3	3	3	3	3	3	3	3	3	3	3	3
SNP_A-2009120	2	2	2	2	2	2	1	1	3	3	3	3
SNP_A-2009258	1	1	1	1	1	1	1	1	1	1	1	1
SNP_A-2009366	2	2	1	1	2	2	1	1	3	3	1	1
SNP_A-2009576	1	1	1	1	2	2	1	1	1	1	1	1
SNP_A-2009621	3	3	3	3	3	3	3	3	2	2	3	3
SNP_A-2009646	1	1	1	1	1	1	1	1	2	2	1	1
SNP_A-2009660	3	3	3	3	3	3	3	3	3	3	3	3
SNP_A-2009740	2	2	1	1	3	3	3	3	3	3	2	2
SNP_A-2009743	2	2	3	3	1	1	1	1	1	1	2	2
SNP_A-2009794	3	3	3	3	2	2	2	2	2	2	2	2
SNP_A-2009808	2	2	1	1	2	2	2	2	2	2	1	1
SNP_A-4214925	1	1	1	1	1	1	1	1	1	1	1	1
SNP_A-4214932	3	3	1	1	2	2	2	2	3	3	2	2
SNP_A-2009868	1	1	3	3	3	3	2	2	2	2	2	2
SNP_A-2009943	1	1	3	3	2	2	2	2	1	1	2	2
SNP_A-2009973	3	3	3	3	3	3	3	3	3	3	3	3
SNP_A-2009974	1	1	1	1	2	2	1	1	1	1	1	1
SNP_A-2010058	1	1	2	2	2	2	1	1	1	1	2	2
SNP_A-2010071	3	3	3	3	3	3	2	2	2	2	3	3
SNP_A-4214973	1	1	1	1	1	1	1	1	1	1	1	1
SNP_A-4269520	3	3	3	3	3	3	3	3	3	3	3	3
SNP_A-4269521	3	3	3	3	3	3	3	3	3	3	3	3
SNP_A-2010331	3	3	3	3	1	1	1	1	2	2	3	3
SNP_A-2010360	1	1	1	1	2	2	3	3	1	1	1	1
SNP_A-2010454	2	2	3	3	2	2	2	2	3	3	2	2
SNP_A-4215003	2	2	2	2	2	1	3	3	3	3	3	3
SNP_A-2010526	1	1	1	1	2	2	2	2	1	1	1	1
SNP_A-2010527	3	3	3	3	3	3	2	2	3	3	3	3
SNP_A-2010535	2	2	1	1	1	1	1	1	1	1	1	1
SNP_A-4215032	2	2	1	1	1	1	2	2	1	1	1	1
SNP_A-2010925	2	2	1	1	1	1	2	2	1	1	3	3
SNP_A-2010988	2	3	3	3	2	2	3	3	1	1	2	2
SNP_A-2011008	3	3	3	3	3	3	2	2	3	3	3	3
SNP_A-4269613	1	1	1	1	1	1	1	1	1	1	1	1
SNP_A-2011064	3	3	3	3	3	3	2	2	3	3	3	3
SNP_A-2011069	1	1	1	1	1	1	2	2	1	1	1	1
SNP_A-2011072	3	3	3	3	3	3	2	2	3	3	3	3
SNP_A-4215072	1	1	2	2	1	1	1	1	1	1	1	1
SNP_A-2011159	3	3	2	2	2	2	3	3	3	3	2	2
SNP_A-4215086	3	3	2	2	2	2	3	3	3	3	2	2
SNP_A-4215087	3	3	3	3	2	2	3	3	3	3	3	3
SNP_A-2011236	2	2	1	1	1	1	1	1	1	1	1	1
SNP_A-2011241	1	1	1	1	1	1	1	1	1	1	1	1
SNP_A-4215094	3	3	3	3	3	3	3	3	3	3	3	3
SNP_A-2011262	3	3	2	2	3	3	3	3	3	3	3	3
SNP_A-2011264	1	1	1	1	1	1	1	1	1	1	1	1
SNP_A-2011266	3	3	3	3	3	3	3	3	3	3	3	3
SNP_A-2011279	1	1	1	1	1	1	1	1	1	1	1	1
SNP_A-2011284	3	3	3	3	3	3	3	3	3	3	3	3
SNP_A-2011297	3	3	2	2	2	2	2	2	2	2	2	2
SNP_A-4269669	2	2	2	2	3	3	3	3	3	3	3	3
SNP_A-2011423	2	2	3	3	3	3	2	2	3	3	2	2
SNP_A-2011447	3	3	3	3	3	3	3	3	3	3	3	3
SNP_A-2011456	3	3	3	3	3	3	3	3	3	3	3	3
SNP_A-2011464	3	3	3	3	3	3	3	3	3	3	3	3
SNP_A-2011646	2	2	2	2	2	2	2	2	2	2	3	3
SNP_A-2011647	2	2	2	2	3	3	3	3	3	3	3	3
SNP_A-2011667	2	2	3	3	3	3	2	2	2	2	2	2
SNP_A-2011670	2	2	2	2	1	1	2	2	3	3	2	2
SNP_A-4215132	3	3	3	3	3	3	3	3	3	3	3	3
SNP_A-2011694	1	1	1	1	3	3	2	2	3	3	2	2
SNP_A-2011708	2	2	2	2	2	2	2	2	1	1	2	2
SNP_A-4269714	1	1	1	1	1	1	1	1	1	1	1	1
SNP_A-2011849	1	1	1	1	1	1	1	1	1	1	1	1
SNP_A-2011928	2	2	1	1	2	2	1	1	1	1	2	2
SNP_A-2011959	3	3	2	2	2	2	3	3	3	3	3	3
SNP_A-2011962	1	1	2	2	2	2	1	1	1	1	1	1
SNP_A-2011980	3	3	2	2	2	2	3	3	3	3	3	3
SNP_A-2011985	1	1	2	2	2	2	1	1	1	1	1	1
SNP_A-4269736	1	1	2	2	2	2	1	1	1	1	1	1
SNP_A-4215159	2	2	2	2	3	3	2	2	1	1	2	2
SNP_A-4269754	1	1	1	1	2	2	1	1	1	1	1	1
SNP_A-2012085	2	2	2	2	1	1	2	2	1	1	2	2
SNP_A-2012194	2	2	2	2	3	3	2	2	1	1	2	2
SNP_A-4269765	3	3	3	3	3	3	3	3	3	3	3	3
SNP_A-4215192	2	2	2	2	1	1	3	2	1	1	2	2
SNP_A-2012405	2	2	2	2	1	1	2	2	3	3	2	2
SNP_A-2012420	2	2	2	2	1	1	2	2	1	1	3	3
SNP_A-4269806	3	3	3	3	3	3	3	3	3	3	3	3
SNP_A-2012607	3	3	3	3	3	3	3	3	3	3	3	3
SNP_A-2012637	3	3	2	2	2	2	3	3	2	2	3	3
SNP_A-4269830	3	3	3	3	3	3	3	3	3	3	3	3
SNP_A-4269873	1	1	2	2	1	1	1	1	1	1	1	1
SNP_A-4269876	1	1	2	2	2	2	1	1	1	1	1	1
SNP_A-2013239	3	3	3	3	3	3	2	2	2	2	3	3
SNP_A-2013317	2	2	2	2	3	3	2	2	2	2	1	1
SNP_A-2013519	2	2	1	1	2	2	3	3	1	1	1	1
SNP_A-2013520	2	2	3	3	2	2	1	1	3	3	3	3
SNP_A-2013522	2	2	3	3	3	3	2	2	3	3	3	3
SNP_A-2013529	1	1	1	1	1	1	1	1	1	1	1	1
SNP_A-2013560	1	1	1	1	1	1	1	1	1	1	1	1
SNP_A-4215346	3	3	2	2	3	3	3	3	3	3	3	3
SNP_A-2013671	1	1	2	2	1	1	1	1	1	1	1	1
SNP_A-2013672	3	3	3	3	3	3	2	2	3	3	3	3
SNP_A-2013735	3	3	2	2	3	3	3	3	3	3	2	2
SNP_A-2013738	3	3	3	3	3	3	3	3	3	3	3	3
SNP_A-2013740	3	3	2	2	3	3	3	3	3	3	2	2
SNP_A-2013775	1	1	1	1	1	1	1	1	1	1	1	1
SNP_A-2013787	2	2	3	3	1	1	3	3	3	3	3	3
SNP_A-2013805	2	2	1	1	1	1	2	2	2	2	1	1
SNP_A-2013864	1	1	2	2	1	1	2	2	1	1	1	1
SNP_A-4269978	3	3	3	3	3	3	3	3	3	3	3	3
SNP_A-4269979	3	3	2	2	2	2	3	3	2	2	3	3
SNP_A-2014008	3	3	2	2	3	3	3	3	2	2	3	3
SNP_A-4270020	3	3	2	2	2	2	2	2	3	3	2	2
SNP_A-4270027	3	3	3	3	2	2	3	3	3	3	3	3
SNP_A-2014304	1	1	2	2	2	2	2	2	3	3	2	2
SNP_A-2014305	1	1	2	2	1	1	2	2	3	3	2	2
SNP_A-2014421	1	1	1	1	1	1	1	1	1	1	1	1
SNP_A-2014502	3	3	3	3	2	2	3	3	3	3	3	3
SNP_A-2014605	1	1	1	1	2	2	1	1	1	1	1	1
SNP_A-4270067	3	3	2	2	2	2	2	2	3	3	2	2
SNP_A-2014765	3	3	2	2	1	1	1	1	3	3	3	3
SNP_A-4270093	2	2	2	2	3	3	2	2	3	3	1	1
SNP_A-4215490	3	3	3	3	3	3	3	3	3	3	3	3
SNP_A-4215492	3	3	2	2	3	3	2	1	2	2	1	1
SNP_A-4270098	3	3	3	3	3	3	2	2	3	3	3	3
SNP_A-2014903	2	2	3	3	2	2	3	3	3	3	3	3
SNP_A-2014930	1	1	1	1	2	2	3	3	2	2	1	1
SNP_A-4270165	1	1	2	1	2	1	1	1	1	1	1	1
SNP_A-2015412	3	3	3	3	3	3	3	3	2	2	2	2
SNP_A-2015584	2	2	3	3	2	2	3	3	3	3	3	3
SNP_A-4215575	2	2	3	3	2	1	3	3	3	3	3	3
SNP_A-2015669	1	1	1	1	1	1	1	1	1	1	1	1
SNP_A-2015679	2	2	1	1	1	1	1	1	1	1	2	2
SNP_A-2016374	3	3	3	3	3	3	3	3	3	3	3	3
SNP_A-4270259	1	1	2	2	1	1	2	2	1	1	2	2
SNP_A-2017011	1	1	1	1	1	1	1	1	1	1	1	1
SNP_A-2017873	2	2	1	1	1	1	2	2	2	2	1	1
SNP_A-2020468	1	1	1	1	2	2	2	2	2	2	3	3
SNP_A-4270746	3	3	3	3	2	2	3	3	2	2	1	1
SNP_A-4270748	3	3	3	3	3	3	2	2	2	2	1	1
SNP_A-4270780	1	1	1	1	1	1	1	1	2	2	3	3
SNP_A-4270783	3	3	2	2	2	2	2	2	2	2	1	1
SNP_A-2020836	2	2	3	3	3	3	2	2	2	2	3	3
SNP_A-2020866	1	1	2	2	2	2	1	1	1	1	1	1
SNP_A-2020867	1	1	1	1	2	2	3	3	2	2	3	3
SNP_A-2020876	3	3	2	2	3	3	3	3	3	3	3	3
SNP_A-4270797	3	3	2	2	3	3	3	3	3	3	3	3
SNP_A-2020879	3	3	3	3	2	2	3	3	3	3	3	3
SNP_A-2020880	1	1	1	1	3	3	2	2	2	2	3	3
SNP_A-4270798	1	1	3	3	3	3	3	3	3	3	3	3
SNP_A-2020886	3	3	3	3	1	1	3	3	3	3	2	2
SNP_A-2020905	3	3	3	3	3	3	3	3	3	3	3	3
SNP_A-2020906	1	1	1	1	1	1	1	1	1	1	1	1
SNP_A-2020907	3	3	3	3	3	3	3	3	3	3	2	2
SNP_A-2020908	2	2	3	3	3	3	3	3	3	3	1	1
SNP_A-4216039	1	1	3	3	1	1	2	2	2	2	1	1
SNP_A-4216040	2	2	1	1	2	2	1	1	1	1	2	2
SNP_A-4216041	1	1	1	1	1	1	1	1	1	1	2	2
SNP_A-2020917	3	3	3	3	3	3	3	3	3	3	3	3
SNP_A-2020921	2	2	2	2	2	2	3	3	1	1	2	2
SNP_A-2020928	2	2	3	3	3	3	3	3	3	3	3	3
SNP_A-2020930	1	1	1	1	1	1	1	1	1	1	1	1
SNP_A-2020931	2	2	2	2	2	2	3	3	1	1	2	2
SNP_A-4270805	3	3	3	3	3	3	3	3	3	3	3	3
SNP_A-4270814	2	2	1	1	1	1	3	3	1	1	2	2
SNP_A-2020962	1	1	2	2	1	1	1	1	1	1	1	1
SNP_A-4270816	1	1	2	2	1	1	1	1	1	1	1	1
SNP_A-2020968	2	2	2	2	2	2	1	1	3	3	2	2
SNP_A-2020970	3	3	2	2	2	2	2	2	3	3	2	2
SNP_A-2020971	3	3	3	3	3	3	3	3	3	3	3	3
SNP_A-4270822	2	2	1	1	2	2	1	1	2	2	3	3
SNP_A-2021029	2	2	2	2	1	1	2	2	2	2	1	1
SNP_A-2021043	3	3	3	3	3	3	3	3	3	3	3	3
SNP_A-2021162	1	1	1	1	1	1	1	1	1	1	1	1
SNP_A-2021277	1	1	1	1	1	1	1	1	1	1	1	1
SNP_A-2021709	3	3	1	1	1	1	1	1	1	1	1	1
SNP_A-2021740	2	2	3	3	3	3	3	3	3	3	3	3
SNP_A-2021994	1	1	3	3	2	2	3	3	3	3	3	3
SNP_A-2022377	2	2	1	1	1	1	1	1	2	2	2	2
SNP_A-4271046	3	3	3	3	3	3	3	3	3	3	3	3
SNP_A-2022676	2	2	1	1	1	1	1	1	1	1	1	1
SNP_A-4271047	1	1	2	2	1	1	1	1	1	1	1	1
SNP_A-2022687	2	2	3	3	2	2	3	3	2	2	2	2
SNP_A-2022733	3	3	1	1	2	2	1	1	2	2	2	2
SNP_A-2022735	3	3	2	2	3	3	3	3	3	3	3	3
SNP_A-2022770	3	3	2	2	2	2	2	2	2	2	2	2
SNP_A-4216225	1	1	1	1	1	1	1	1	1	1	1	1
SNP_A-4216235	2	2	1	1	2	2	1	1	1	1	1	1
SNP_A-2022882	2	2	3	3	3	3	3	3	2	2	3	3
SNP_A-2022990	3	3	3	3	2	2	3	3	2	2	2	2
SNP_A-2023022	3	3	3	3	2	2	3	3	2	2	2	2
SNP_A-2023086	2	2	2	2	2	2	2	2	2	2	1	1
SNP_A-2023350	3	3	2	2	3	3	3	3	2	2	1	1
SNP_A-4271151	1	1	2	2	2	2	1	1	2	2	3	3
SNP_A-4216313	1	1	2	2	1	1	1	1	2	2	2	2
SNP_A-2023781	1	1	1	1	1	1	2	2	1	1	1	1
SNP_A-2025492	1	1	1	1	1	1	1	1	1	1	1	1
SNP_A-2025516	1	1	1	1	1	1	1	1	1	1	3	3
SNP_A-2025542	3	3	3	3	3	3	3	3	3	3	3	3
SNP_A-2026061	1	1	1	1	1	1	1	1	1	1	1	1
SNP_A-2026113	1	1	1	1	3	3	1	1	2	2	2	2
SNP_A-2026120	1	1	1	1	3	3	2	2	2	2	2	2
SNP_A-2026131	1	1	1	1	1	1	1	1	1	1	1	1
SNP_A-2026289	2	2	3	3	1	1	2	2	1	1	3	3
SNP_A-2026309	2	2	1	1	3	3	2	1	3	3	1	1
SNP_A-2026315	2	2	2	2	3	3	2	2	3	3	2	2
SNP_A-2026444	3	3	3	3	3	3	3	3	3	3	3	3
SNP_A-2026445	3	3	3	3	3	3	3	3	3	3	3	3
SNP_A-2027152	2	2	3	3	3	3	3	3	2	2	2	2
SNP_A-2027165	2	2	1	1	1	1	1	1	2	2	2	2
SNP_A-2027488	2	2	2	2	2	2	2	2	2	2	2	2
SNP_A-2027731	1	1	2	2	1	1	2	2	2	2	1	1
SNP_A-2028012	1	1	2	2	1	1	1	1	3	3	2	2
SNP_A-2028283	3	3	3	3	1	1	2	2	3	3	2	2
SNP_A-2028804	2	2	3	3	2	2	3	3	3	3	3	3
SNP_A-2028928	2	2	3	3	2	2	2	2	3	3	2	2
SNP_A-2029184	2	3	1	1	2	2	2	2	1	1	1	1
SNP_A-4216801	1	1	1	1	1	1	1	1	1	1	1	1
SNP_A-4216825	3	3	3	3	3	3	3	3	3	3	3	3
SNP_A-2029386	1	1	1	1	1	1	1	1	1	1	1	1
SNP_A-2029714	3	3	3	3	3	3	3	3	2	2	2	2
SNP_A-2029830	2	2	1	1	1	1	1	1	1	1	1	1
SNP_A-4271937	1	1	2	2	2	1	1	1	3	3	2	2
SNP_A-4216947	2	3	1	1	1	1	2	2	1	1	1	1
SNP_A-2030833	3	3	2	2	3	3	3	3	2	2	2	2
SNP_A-2031926	1	1	1	1	1	1	2	2	1	1	1	1
SNP_A-2032313	2	2	1	1	1	1	1	1	1	1	1	1
SNP_A-4217114	3	3	3	3	3	3	3	3	3	3	3	3
SNP_A-2032852	1	1	1	1	1	1	1	1	1	1	1	1
SNP_A-2033525	1	1	1	1	1	1	2	2	2	2	1	1
SNP_A-2033624	1	1	1	1	1	1	1	1	1	1	1	1
SNP_A-2033669	3	3	2	2	3	3	3	3	3	3	2	2
SNP_A-4272336	1	1	1	1	1	1	1	1	1	1	1	1
SNP_A-4272339	3	3	2	2	3	3	3	3	1	1	1	1
SNP_A-2034289	2	2	1	1	1	1	2	2	2	2	2	2
SNP_A-2034515	1	1	1	1	1	1	2	2	1	1	2	2
SNP_A-2034530	1	1	1	1	2	2	2	2	1	1	2	2
SNP_A-2034863	2	2	1	1	1	1	1	1	1	1	1	1
SNP_A-2036006	1	1	2	2	1	1	2	2	1	1	3	3
SNP_A-2036012	1	1	2	2	1	1	2	2	1	1	2	2
SNP_A-4217410	3	3	2	2	3	3	2	2	3	3	1	1
SNP_A-4217411	1	1	1	1	1	1	1	1	1	1	2	2
SNP_A-2036086	3	3	3	3	3	3	3	3	3	3	3	3
SNP_A-4272631	3	3	3	3	3	3	3	3	3	3	3	3
SNP_A-2036299	1	1	1	1	1	1	1	1	1	1	1	1
SNP_A-2036740	1	1	3	3	1	1	2	2	1	1	3	3
SNP_A-4217500	2	2	3	3	1	1	2	2	1	1	3	3
SNP_A-2037081	1	1	3	3	2	2	2	2	1	1	3	3
SNP_A-4217512	3	3	1	1	3	3	3	3	3	3	1	1
SNP_A-2037989	3	3	3	3	3	3	3	3	2	2	3	3
SNP_A-2038004	3	3	3	3	3	3	3	3	2	2	3	3
SNP_A-2038015	3	3	3	3	3	3	3	3	3	3	3	3
SNP_A-2038103	3	3	3	3	2	2	2	2	2	2	1	1
SNP_A-2038710	1	1	1	1	1	1	1	1	1	1	1	1
SNP_A-2038800	1	1	1	1	1	1	1	1	2	2	1	1
SNP_A-2038980	1	1	1	1	2	2	2	2	1	1	3	3
SNP_A-4217688	3	3	3	3	2	2	2	2	3	3	1	1
SNP_A-2039047	3	3	3	3	2	2	1	1	2	2	1	1
SNP_A-4272941	2	2	1	1	1	1	1	1	1	1	1	1
SNP_A-2039943	1	1	1	1	1	1	1	1	1	1	1	1
SNP_A-4217761	3	3	1	1	3	3	3	3	1	1	3	3
SNP_A-4217762	2	2	1	1	1	1	1	1	1	1	1	1
SNP_A-2040125	3	3	3	3	3	3	3	2	3	3	3	3
SNP_A-4273081	3	3	3	3	3	3	2	2	3	3	3	3
SNP_A-4273082	3	3	3	3	3	3	3	3	3	3	3	3
SNP_A-2040392	1	1	1	1	1	1	1	1	1	1	1	1
SNP_A-4273112	1	1	1	1	1	1	1	1	1	1	1	1
SNP_A-2041385	3	3	3	3	2	2	2	2	3	3	3	3
SNP_A-2041402	1	1	1	1	2	2	2	2	1	1	1	1
SNP_A-4273233	1	1	1	1	2	2	2	2	1	1	1	1
SNP_A-4217872	3	3	3	3	2	2	2	2	3	3	2	2
SNP_A-4217902	1	1	1	1	1	1	1	1	1	1	1	1
SNP_A-4273276	1	1	1	1	2	2	3	3	1	1	2	2
SNP_A-2041763	1	1	1	1	1	1	1	1	1	1	1	1
SNP_A-2041972	1	1	3	3	3	3	2	2	2	2	2	2
SNP_A-2042497	1	1	1	1	2	2	1	1	1	1	1	1
SNP_A-2042637	3	3	3	3	2	2	3	3	3	3	3	3
SNP_A-2042648	3	3	3	3	2	2	3	3	3	3	3	3
SNP_A-2042654	1	1	1	1	2	2	2	2	1	1	2	2
SNP_A-2042660	3	3	2	2	2	2	2	2	3	3	2	2
SNP_A-2042674	1	1	1	1	1	1	1	1	1	1	1	1
SNP_A-2042790	2	2	2	2	2	2	1	1	1	1	2	2
SNP_A-4218011	3	3	3	3	3	3	3	3	3	3	3	3
SNP_A-4273586	2	2	3	3	3	3	3	3	3	3	3	3
SNP_A-2044989	2	2	2	2	2	2	2	2	3	3	3	3
SNP_A-4273693	1	1	2	2	1	1	1	1	3	3	3	3
SNP_A-4273766	1	1	1	1	1	1	1	1	1	1	3	3
SNP_A-2046019	2	2	2	2	2	2	2	2	3	3	1	1
SNP_A-2046332	2	2	2	2	1	1	2	2	1	1	3	3
SNP_A-2046345	2	2	2	2	1	1	3	3	1	1	3	3
SNP_A-2046946	2	2	1	1	2	2	2	2	2	2	3	3
SNP_A-4218393	2	2	2	2	2	2	1	1	2	2	2	2
SNP_A-4273968	2	2	3	3	1	1	3	3	2	2	3	3
SNP_A-2048027	3	3	3	3	3	3	3	3	3	3	3	3
SNP_A-2048292	2	2	2	2	2	2	1	1	1	1	3	3
SNP_A-2048480	1	1	1	1	1	1	2	2	1	1	1	1
SNP_A-4274102	2	2	1	1	1	1	1	1	1	1	1	1
SNP_A-4218523	3	3	3	3	3	3	3	3	3	3	3	3
SNP_A-2048993	1	1	1	1	2	2	1	1	1	1	1	1
SNP_A-4218529	1	1	2	2	1	1	1	1	1	1	1	1
SNP_A-2049337	2	2	1	1	1	1	2	2	2	2	2	2
SNP_A-2049342	1	1	1	1	1	1	1	1	1	1	1	1
SNP_A-4274200	1	1	1	1	1	1	1	1	1	1	1	1
SNP_A-2050642	3	3	2	2	3	3	3	3	3	3	3	3
SNP_A-2050649	1	1	1	1	1	1	1	1	1	1	1	1
SNP_A-2050657	2	2	1	1	2	2	1	1	2	2	3	3
SNP_A-2051039	3	3	2	2	2	2	3	3	3	3	3	3
SNP_A-2051076	2	2	2	2	2	2	3	3	2	2	2	2
SNP_A-4218701	3	3	2	2	3	3	3	3	3	3	3	3
SNP_A-2053138	3	3	2	2	3	3	3	3	2	2	3	3
SNP_A-2053147	3	3	2	2	3	3	3	3	2	2	3	3
SNP_A-2053571	2	2	2	2	1	1	1	1	1	1	2	2
SNP_A-2054048	2	2	1	1	1	1	1	1	2	2	2	2
SNP_A-4274820	3	3	3	3	2	2	3	3	3	3	3	3
SNP_A-2054595	2	2	3	3	3	3	3	3	2	2	2	2
SNP_A-4274823	2	2	2	2	1	1	3	3	2	2	2	2
SNP_A-4219013	1	1	1	1	2	2	1	1	1	1	1	1
SNP_A-2054965	3	3	3	3	3	3	3	3	3	3	3	3
SNP_A-2055189	2	2	3	3	2	2	3	3	2	2	2	2
SNP_A-2055200	3	3	3	3	3	3	3	3	3	3	3	3
SNP_A-4219066	1	1	2	2	1	1	1	1	1	1	1	1
SNP_A-2055479	2	2	2	2	2	2	3	3	3	3	3	3
SNP_A-2055773	3	3	3	3	3	3	3	3	3	3	3	3
SNP_A-4274950	3	3	2	2	3	3	3	3	3	3	3	3
SNP_A-4274951	1	1	1	1	1	1	1	1	1	1	1	1
SNP_A-4219263	3	3	2	2	2	2	3	3	3	3	2	2
SNP_A-2057893	3	3	3	3	2	2	3	3	3	3	3	3
SNP_A-2058142	1	1	2	2	2	2	1	1	3	3	1	1
SNP_A-2058207	3	3	3	3	2	2	3	3	3	3	3	3
SNP_A-2059334	1	1	2	2	2	2	3	3	2	2	3	3
SNP_A-2060358	2	2	3	3	2	2	3	3	2	2	3	3
SNP_A-2060624	2	2	3	3	2	2	2	2	2	2	3	3
SNP_A-2061298	1	1	1	1	1	1	1	1	1	1	1	1
SNP_A-2061310	2	2	3	3	2	2	2	2	2	2	3	3
SNP_A-2061574	2	2	3	3	2	2	3	3	2	2	3	3
SNP_A-2061602	2	2	3	3	2	2	2	2	2	2	3	3
SNP_A-2062005	2	2	1	1	1	1	1	1	2	2	1	1
SNP_A-2063236	2	2	1	1	1	1	1	1	1	1	1	1
SNP_A-4275821	1	1	1	1	1	1	1	1	1	1	1	1
SNP_A-2063445	1	1	3	3	3	3	3	3	3	3	3	3
SNP_A-2063631	1	1	1	1	1	1	1	1	1	1	1	1
SNP_A-2064060	1	1	1	1	1	1	1	1	1	1	1	1
SNP_A-4219855	3	3	2	2	2	2	3	3	3	3	1	1
SNP_A-2064596	3	3	3	3	2	2	3	3	3	3	3	3
SNP_A-4275968	1	1	1	1	2	2	1	1	1	1	1	1
SNP_A-2064680	1	1	1	1	2	2	1	1	1	1	1	1
SNP_A-2064829	1	1	2	2	1	1	2	2	1	1	1	1
SNP_A-2065127	1	1	3	3	3	3	2	2	2	2	2	2
SNP_A-2065682	3	3	3	3	3	3	3	3	3	3	3	3
SNP_A-4276107	2	2	1	1	1	1	1	1	2	2	1	1
SNP_A-4276109	1	1	1	1	1	1	1	1	1	1	1	1
SNP_A-2066495	1	1	1	1	1	1	2	2	1	1	3	3
SNP_A-4220088	3	3	3	3	3	3	2	2	3	3	1	1
SNP_A-4182967	3	3	2	2	2	1	3	3	3	3	3	3
SNP_A-4220093	3	3	3	3	3	3	2	2	3	3	1	1
SNP_A-2067165	1	1	1	1	1	1	1	1	1	1	1	1
SNP_A-2067545	1	1	2	2	1	1	1	1	1	1	2	2
SNP_A-2067619	1	1	2	2	3	3	2	2	2	2	3	3
SNP_A-2067643	1	1	1	1	1	1	1	1	1	1	1	1
SNP_A-4220223	3	3	2	2	1	1	2	2	1	1	2	2
SNP_A-2068187	3	3	2	2	2	2	3	3	1	1	2	2
SNP_A-2068700	3	3	3	3	3	3	3	3	3	3	2	2
SNP_A-2068707	2	2	2	2	1	1	1	1	1	1	1	1
SNP_A-4183091	3	3	3	3	3	3	3	3	3	3	3	3
SNP_A-2069201	3	3	2	2	2	2	3	3	2	2	2	2
SNP_A-2069568	3	3	3	3	3	3	3	3	2	2	2	2
SNP_A-2069810	3	3	3	3	2	2	3	3	2	2	3	3
SNP_A-2070146	3	3	2	2	2	2	3	3	1	1	2	2
SNP_A-2070446	1	1	2	2	1	1	3	3	1	1	2	2
SNP_A-4276676	2	2	3	3	2	2	3	3	3	3	3	3
SNP_A-2070821	1	1	1	1	1	1	2	2	1	1	1	1
SNP_A-2072122	3	3	3	3	2	2	3	3	3	3	2	2
SNP_A-2072131	1	1	2	2	2	2	1	1	3	3	2	2
SNP_A-2072146	2	2	1	1	1	1	1	1	1	1	1	1
SNP_A-2073138	3	3	3	3	2	2	3	3	3	3	3	3
SNP_A-2073178	3	3	3	3	3	3	3	3	3	3	3	3
SNP_A-2073755	1	1	1	1	1	1	1	1	1	1	1	1
SNP_A-2074372	3	3	3	3	3	3	3	3	2	2	3	3
SNP_A-2074682	1	1	1	1	1	1	1	1	1	1	1	1
SNP_A-2074694	1	1	2	2	2	2	2	2	1	1	1	1
SNP_A-2075011	2	2	1	1	1	1	2	2	1	1	1	1
SNP_A-2075101	3	3	3	3	3	3	3	3	3	3	3	3
SNP_A-2075115	1	1	1	1	1	1	1	1	1	1	1	1
SNP_A-2076493	2	2	2	2	1	1	1	1	1	1	1	1
SNP_A-4220974	2	2	2	2	2	2	1	1	3	3	3	3
SNP_A-2076722	3	3	3	3	3	3	3	3	1	1	2	2
SNP_A-2076913	3	3	3	3	2	2	3	3	1	1	1	1
SNP_A-2077136	3	3	3	3	3	3	3	3	3	3	3	3
SNP_A-2077356	1	1	1	1	2	2	2	2	1	1	1	1
SNP_A-4277480	3	3	3	3	3	3	3	3	3	3	3	3
SNP_A-2077896	3	3	3	3	3	3	3	3	3	3	3	3
SNP_A-2077916	2	2	3	3	3	3	3	3	3	3	3	3
SNP_A-2078065	1	1	3	3	2	2	3	3	1	1	1	1
SNP_A-4277573	2	2	1	1	2	2	1	1	1	1	3	3
SNP_A-4277574	2	2	1	1	2	2	1	1	1	1	3	3
SNP_A-4277591	1	1	3	3	3	3	2	2	2	2	3	3
SNP_A-4277595	1	1	3	3	3	3	2	2	2	2	3	3
SNP_A-2078293	3	3	1	1	3	3	2	2	3	3	2	2
SNP_A-2078718	3	3	3	3	3	3	3	3	3	3	3	3
SNP_A-2079264	3	3	3	3	3	3	3	3	3	3	3	3
SNP_A-4277695	3	3	3	3	3	3	2	2	3	3	3	3
SNP_A-4221202	1	1	1	1	1	1	1	1	1	1	1	1
SNP_A-4221209	1	1	3	3	1	1	1	1	2	2	2	2
SNP_A-2079713	1	1	1	1	1	1	1	1	1	1	1	1
SNP_A-2080194	1	1	1	1	1	1	2	2	1	1	1	1
SNP_A-4221272	3	3	1	1	3	3	3	3	2	2	2	2
SNP_A-4221275	1	1	1	1	1	1	1	1	2	2	1	1
SNP_A-2080277	2	2	1	1	1	1	1	1	2	2	1	1
SNP_A-2080340	2	2	3	3	2	2	3	3	2	2	3	3
SNP_A-2080637	3	3	1	1	3	3	2	2	3	3	1	1
SNP_A-2081256	1	1	2	2	1	1	1	1	1	1	1	1
SNP_A-4277946	1	1	2	2	2	3	2	3	2	2	2	2
SNP_A-2081660	3	3	2	2	2	2	3	3	2	2	3	3
SNP_A-4277977	1	1	3	3	3	3	3	3	3	3	3	3
SNP_A-4221422	3	3	2	2	2	2	2	2	2	2	2	2
SNP_A-4278024	2	2	3	3	2	2	2	2	3	3	3	3
SNP_A-4278035	1	1	2	2	1	1	2	2	1	1	1	1
SNP_A-2082192	1	1	1	1	1	1	2	2	1	1	1	1
SNP_A-4278075	2	2	2	2	2	2	2	2	3	3	2	2
SNP_A-2082388	2	2	2	2	2	2	3	3	3	3	2	2
SNP_A-2082688	1	1	1	1	1	1	1	1	2	2	1	1
SNP_A-4183735	3	3	3	3	3	3	3	3	3	3	3	3
SNP_A-2083490	1	1	2	2	1	1	1	1	1	1	2	2
SNP_A-2084401	3	3	3	3	3	3	3	3	1	1	3	3
SNP_A-4221667	1	1	1	1	1	1	1	1	3	3	1	1
SNP_A-4221741	3	3	3	3	2	2	2	2	2	2	3	3
SNP_A-2085506	2	2	2	2	3	3	1	1	2	2	2	2
SNP_A-2085510	1	1	2	2	3	3	1	1	2	2	2	2
SNP_A-2085511	1	1	2	2	3	3	2	2	2	2	2	2
SNP_A-4278427	3	3	2	2	1	1	2	2	2	2	2	2
SNP_A-2085514	3	3	3	3	3	3	3	3	3	3	3	3
SNP_A-2085692	3	3	1	1	1	1	2	2	2	2	2	2
SNP_A-4221777	1	1	1	1	1	1	1	1	1	1	1	1
SNP_A-4221854	3	3	2	2	1	1	2	2	2	2	2	2
SNP_A-2087719	3	3	2	2	3	3	2	2	1	1	1	1
SNP_A-2087732	1	1	1	1	1	1	1	1	1	1	1	1
SNP_A-2088122	2	2	1	1	1	1	1	1	1	1	1	1
SNP_A-2089276	2	2	2	2	3	3	2	2	3	3	1	1
SNP_A-2091073	2	2	2	2	1	1	1	1	1	1	2	2
SNP_A-2091080	2	2	2	2	1	1	3	3	3	3	2	2
SNP_A-4279059	3	3	3	3	3	3	3	3	3	3	3	3
SNP_A-2091772	1	1	1	1	1	1	3	3	2	2	1	1
SNP_A-2092265	3	3	3	3	3	3	3	3	1	1	2	2
SNP_A-2092685	3	3	3	3	3	3	3	3	3	3	3	3
SNP_A-4222349	1	1	2	2	1	1	3	3	3	3	3	3
SNP_A-2092729	2	2	2	2	3	3	1	1	1	1	1	1
SNP_A-4279276	3	3	3	3	1	1	1	1	2	2	2	2
SNP_A-4222404	3	3	3	3	2	2	2	2	2	2	2	2
SNP_A-2093533	2	2	3	3	1	1	2	2	1	1	2	2
SNP_A-4222550	3	3	2	2	3	3	3	3	3	3	3	3
SNP_A-2094866	3	3	2	2	2	2	2	2	2	2	2	2
SNP_A-2094873	3	3	3	3	3	3	3	3	3	3	3	3
SNP_A-2095159	1	1	2	2	1	1	2	2	1	1	1	1
SNP_A-2095254	3	3	3	3	2	2	3	3	2	2	2	2
SNP_A-4279551	1	1	1	1	2	2	1	1	2	2	2	2
SNP_A-2095391	2	2	2	2	2	2	2	2	2	2	2	2
SNP_A-4222620	3	3	3	3	2	2	3	3	3	3	3	3
SNP_A-2095400	2	2	2	2	2	2	2	2	2	2	2	2
SNP_A-2095560	3	3	3	3	1	1	3	3	2	2	2	2
SNP_A-2096273	3	3	3	3	3	3	3	3	3	3	3	3
SNP_A-2096297	1	1	1	1	1	1	1	1	1	1	1	1
SNP_A-2097362	1	1	1	1	1	1	1	1	1	1	1	1
SNP_A-2097733	2	2	3	3	2	2	3	3	3	3	3	3
SNP_A-2097847	1	1	1	1	1	1	1	1	1	1	2	2
SNP_A-2097898	2	2	2	2	1	1	2	2	3	3	2	2
SNP_A-4222837	1	1	1	1	2	2	1	1	1	1	1	1
SNP_A-2098023	1	1	1	1	2	2	1	1	1	1	2	2
SNP_A-2098115	3	3	3	3	3	3	3	3	3	3	3	3
SNP_A-2098147	1	1	1	1	1	1	1	1	1	1	1	1
SNP_A-2098379	3	3	2	2	1	1	2	2	3	3	3	3
SNP_A-4279920	1	1	2	2	3	3	2	2	1	1	1	1
SNP_A-4280100	1	1	1	1	1	1	2	2	1	1	1	1
SNP_A-2100575	1	1	1	1	2	2	1	1	2	2	1	1
SNP_A-2100904	1	1	1	1	2	2	1	1	2	2	1	1
SNP_A-4280182	1	1	1	1	1	1	1	1	1	1	1	1
SNP_A-4184530	3	3	3	3	1	1	2	2	2	2	3	3
SNP_A-4223218	3	3	3	3	3	3	3	3	3	3	3	3
SNP_A-4223240	3	3	2	2	3	3	3	3	3	3	3	3
SNP_A-2102700	2	2	1	1	1	1	2	2	1	1	2	2
SNP_A-4223248	3	3	3	3	1	1	3	3	1	1	2	2
SNP_A-2103132	3	3	1	1	1	1	1	1	2	2	2	2
SNP_A-4280456	1	1	2	2	1	1	2	2	2	2	1	1
SNP_A-2103813	1	1	2	2	1	1	2	2	1	1	1	1
SNP_A-2104446	1	1	1	1	2	2	1	1	1	1	1	1
SNP_A-2104451	1	1	1	1	1	1	1	1	1	1	1	1
SNP_A-4280557	1	1	1	1	2	2	1	1	1	1	1	1
SNP_A-2105310	3	3	3	3	2	2	2	2	3	3	2	2
SNP_A-2105781	2	2	1	1	1	1	2	2	1	1	1	1
SNP_A-4223510	2	2	1	1	1	1	2	2	1	1	1	1
SNP_A-4223511	2	2	3	3	3	3	2	2	3	3	3	3
SNP_A-2106115	3	3	3	3	2	2	3	3	2	2	3	3
SNP_A-4223542	2	2	1	1	1	1	2	2	1	1	2	2
SNP_A-4280774	3	3	3	3	2	2	2	2	3	3	3	3
SNP_A-4280815	2	2	2	2	1	1	1	1	3	3	3	3
SNP_A-4280817	1	1	2	2	3	3	1	1	1	1	1	1
SNP_A-4223610	3	3	2	2	3	3	3	3	3	3	3	3
SNP_A-2107131	1	1	1	1	1	1	1	1	1	1	1	1
SNP_A-2107419	3	3	3	3	2	2	3	3	3	3	2	2
SNP_A-2107444	1	1	1	1	2	2	1	1	1	1	2	2
SNP_A-4223672	1	1	1	1	2	2	1	1	2	2	1	1
SNP_A-2108587	2	2	2	2	2	2	1	1	1	1	1	1
SNP_A-2108588	2	2	2	2	2	2	3	3	3	3	3	3
SNP_A-4223753	3	3	3	3	3	3	2	2	3	3	2	2
SNP_A-4223754	2	2	2	2	2	2	1	1	1	1	1	1
SNP_A-4223755	2	2	2	2	2	2	3	3	3	3	3	3
SNP_A-4281116	1	1	1	1	2	2	2	2	1	1	1	1
SNP_A-2109056	1	1	1	1	3	3	1	1	2	2	2	2
SNP_A-2109180	3	3	3	3	3	3	2	2	3	3	3	3
SNP_A-2109248	1	1	2	2	1	1	1	1	1	1	1	1
SNP_A-2109280	1	1	2	2	1	1	1	1	1	1	1	1
SNP_A-4223833	1	1	2	2	1	1	1	1	1	1	1	1
SNP_A-4223834	1	1	2	2	1	1	1	1	1	1	1	1
SNP_A-2110131	2	2	3	3	3	3	2	2	2	2	2	2
SNP_A-2110356	2	2	1	1	3	3	1	1	1	1	2	2
SNP_A-4281294	3	3	3	3	3	3	2	2	3	3	3	3
SNP_A-4281298	2	2	3	3	3	3	3	3	3	3	2	2
SNP_A-2110615	1	1	1	1	1	1	1	1	1	1	1	1
SNP_A-2111030	3	3	3	3	3	3	3	3	3	3	3	3
SNP_A-2111607	3	3	3	3	3	3	3	3	3	3	3	3
SNP_A-2111636	1	1	1	1	2	2	2	2	2	2	1	1
SNP_A-4281421	3	3	1	1	1	1	2	2	2	2	3	3
SNP_A-2112361	2	2	2	2	2	2	3	3	3	3	3	3
SNP_A-4224047	2	2	2	2	2	2	3	3	3	3	3	3
SNP_A-2113067	2	2	2	2	1	1	1	1	2	2	3	3
SNP_A-2113716	2	2	2	2	1	1	2	2	2	2	2	2
SNP_A-2113909	2	2	2	2	2	2	2	2	2	2	2	2
SNP_A-2114220	2	2	2	2	1	1	1	1	2	2	2	2
SNP_A-2114571	3	3	1	1	1	1	3	3	2	2	1	1
SNP_A-4281737	3	3	2	2	3	3	3	3	2	2	2	2
SNP_A-2114605	1	1	2	2	1	1	1	1	2	2	2	2
SNP_A-4224268	2	2	3	3	1	1	1	1	1	1	1	1
SNP_A-4224269	2	2	3	3	3	3	3	3	3	3	3	3
SNP_A-4224283	3	3	3	3	3	3	3	3	3	3	3	3
SNP_A-4224284	3	3	3	3	3	3	2	2	3	3	3	3
SNP_A-2115689	2	2	1	1	3	3	2	2	2	2	3	3
SNP_A-2115914	2	2	3	3	3	3	3	3	3	3	3	3
SNP_A-2116419	3	3	2	2	3	3	3	3	3	3	2	2
SNP_A-4224350	1	1	1	1	1	1	1	1	1	1	1	1
SNP_A-2116543	2	2	3	3	3	3	3	3	3	3	3	3
SNP_A-2116556	3	3	3	3	3	3	3	3	3	3	2	2
SNP_A-4282130	2	2	1	1	1	1	1	1	1	1	1	1
SNP_A-2118114	2	2	2	2	2	2	2	2	2	2	3	3
SNP_A-4224479	3	3	2	2	3	3	2	2	3	3	3	3
SNP_A-2118513	2	2	2	2	3	3	2	2	3	3	3	3
SNP_A-2118706	1	1	2	2	3	3	2	2	3	3	1	1
SNP_A-4282241	2	2	2	2	1	1	2	2	1	1	1	1
SNP_A-4224613	3	3	3	3	3	3	3	2	3	3	1	1
SNP_A-2119762	1	1	1	1	1	1	1	1	1	1	1	1
SNP_A-2119934	2	2	2	2	2	2	2	2	3	3	1	1
SNP_A-4224697	2	2	2	2	3	3	1	1	2	2	1	1
SNP_A-2120940	1	1	1	1	2	2	1	1	1	1	1	1
SNP_A-2121503	1	1	1	1	1	1	1	1	1	1	1	1
SNP_A-2121649	1	1	2	2	3	3	2	2	3	3	2	2
SNP_A-2121668	3	3	3	3	3	3	3	3	3	3	3	3
SNP_A-2121870	1	1	1	1	1	1	1	1	1	1	1	1
SNP_A-2122759	3	3	3	3	3	3	3	3	3	3	3	3
SNP_A-4282680	1	1	1	1	3	3	2	2	1	1	1	1
SNP_A-2124281	3	3	3	3	3	3	3	3	3	3	3	3
SNP_A-2124307	3	3	3	3	2	2	1	1	2	2	1	1
SNP_A-2124319	2	2	2	2	2	2	1	1	2	2	1	1
SNP_A-2124345	2	2	2	2	1	1	1	1	2	2	1	1
SNP_A-4282871	2	2	2	2	3	3	3	3	2	2	3	3
SNP_A-4282894	1	1	1	1	2	2	2	2	2	2	3	3
SNP_A-2124680	1	1	1	1	2	2	2	2	2	2	3	3
SNP_A-2124691	1	1	1	1	2	2	2	2	2	2	3	3
SNP_A-2124705	3	3	3	3	3	3	3	3	3	3	3	3
SNP_A-2125097	1	1	1	1	1	1	2	2	2	2	3	3
SNP_A-2125513	2	2	2	2	2	2	2	2	1	1	1	1
SNP_A-2125535	1	1	2	2	2	2	2	2	1	1	1	1
SNP_A-2125969	2	2	1	1	3	3	2	2	2	2	3	3
SNP_A-4185302	3	3	3	3	3	3	3	3	3	3	3	3
SNP_A-4225136	2	2	1	1	1	1	1	1	1	1	1	1
SNP_A-2126403	3	3	2	2	3	3	2	2	3	3	3	3
SNP_A-4283174	3	3	3	3	1	1	2	2	2	2	1	1
SNP_A-4283177	1	1	1	1	1	1	2	2	2	2	3	3
SNP_A-2127080	1	1	1	1	1	1	2	2	2	2	3	3
SNP_A-2127089	3	3	3	3	3	3	2	2	3	3	2	2
SNP_A-2127104	2	2	1	1	1	1	1	1	1	1	1	1
SNP_A-2127111	3	3	2	2	2	2	2	2	3	3	3	3
SNP_A-2127125	2	2	2	2	2	2	2	2	1	1	1	1
SNP_A-2128110	1	1	1	1	1	1	3	3	3	3	3	3
SNP_A-2128275	1	1	1	1	2	2	1	1	1	1	1	1
SNP_A-2128359	1	1	1	1	1	1	1	1	1	1	1	1
SNP_A-2128390	3	3	3	3	3	3	3	3	3	3	3	3
SNP_A-2130315	2	2	1	1	1	1	1	1	3	3	2	2
SNP_A-4283554	2	2	3	3	3	3	3	3	2	2	2	2
SNP_A-4225546	3	3	3	3	3	3	3	3	2	1	3	3
SNP_A-2130502	3	3	3	3	3	3	3	3	2	2	3	3
SNP_A-2130995	1	1	1	1	2	2	1	1	1	1	2	2
SNP_A-2131259	2	2	3	3	2	2	2	2	2	2	2	2
SNP_A-2131276	2	2	3	3	1	1	1	1	2	2	1	1
SNP_A-2131506	1	1	2	2	1	1	1	1	1	1	2	2
SNP_A-2131519	3	3	1	1	3	3	3	3	2	2	2	2
SNP_A-2131581	3	3	3	3	3	3	3	3	2	2	2	2
SNP_A-2131610	3	3	2	2	2	2	1	1	3	3	2	2
SNP_A-4225673	3	3	1	1	2	2	1	1	2	2	1	1
SNP_A-2131744	1	1	2	2	1	1	1	1	1	1	1	1
SNP_A-2131752	1	1	2	2	2	2	2	2	1	1	2	2
SNP_A-4283810	2	2	1	1	1	1	1	1	1	1	1	1
SNP_A-2133152	1	1	1	1	1	1	2	2	1	1	1	1
SNP_A-2133502	1	1	1	1	1	1	2	2	1	1	1	1
SNP_A-2133504	1	1	1	1	3	3	1	1	2	2	2	2
SNP_A-2134004	2	2	2	2	3	3	2	2	2	2	2	2
SNP_A-2134522	3	3	2	2	3	3	2	2	3	3	2	2
SNP_A-4284027	3	3	3	3	3	3	2	2	3	3	2	2
SNP_A-4284031	2	2	1	1	2	2	3	3	1	1	2	2
SNP_A-2134750	1	1	1	1	1	1	2	2	1	1	2	2
SNP_A-2135253	2	2	3	3	1	1	2	2	2	2	1	1
SNP_A-4225991	2	2	3	3	1	1	2	2	2	2	1	1
SNP_A-2135329	1	1	1	1	1	1	1	1	1	1	1	1
SNP_A-4225993	2	2	3	3	3	3	2	2	3	3	1	1
SNP_A-2135666	1	1	1	1	1	1	1	1	2	2	1	1
SNP_A-2136190	1	1	1	1	2	2	1	1	2	2	1	1
SNP_A-2136194	1	1	1	1	2	2	1	1	2	2	1	1
SNP_A-2137420	1	1	1	1	1	1	1	1	1	1	1	1
SNP_A-2137562	3	3	2	2	1	1	1	1	2	2	3	3
SNP_A-4284373	1	1	2	2	3	3	3	3	2	2	1	1
SNP_A-2138339	3	3	2	2	2	2	2	2	2	2	2	2
SNP_A-4284417	1	1	2	2	2	2	3	3	2	2	1	1
SNP_A-4284448	3	3	2	2	1	1	2	2	1	1	2	2
SNP_A-2138731	1	1	2	2	3	3	2	2	3	3	2	2
SNP_A-4284495	1	1	1	1	1	1	1	1	2	2	1	1
SNP_A-4284512	2	2	3	3	1	1	2	2	1	1	2	2
SNP_A-2139264	1	1	1	1	2	2	2	2	2	2	2	2
SNP_A-2139400	3	3	3	3	2	2	3	3	3	3	3	3
SNP_A-4284670	1	1	2	1	1	1	1	1	1	1	1	1
SNP_A-4226617	1	1	3	3	3	3	3	3	3	3	3	3
SNP_A-2142758	2	2	2	2	1	1	1	1	3	3	3	3
SNP_A-4284885	2	2	2	2	1	1	1	1	3	3	3	3
SNP_A-2142792	3	3	2	2	3	3	3	3	1	1	1	1
SNP_A-4226645	2	2	2	2	2	2	1	1	3	3	3	3
SNP_A-2143421	1	1	2	2	2	2	2	2	3	3	3	3
SNP_A-2143957	1	1	1	1	1	1	2	2	1	1	1	1
SNP_A-2144128	2	2	3	3	3	3	3	3	3	3	3	3
SNP_A-2144642	2	2	2	2	3	3	3	3	3	3	3	3
SNP_A-2144695	2	2	2	2	3	3	3	3	3	3	3	3
SNP_A-2144702	3	3	3	3	3	3	3	3	3	3	3	3
SNP_A-4285107	3	3	3	3	3	3	3	3	3	3	3	3
SNP_A-2144722	2	2	2	2	3	3	3	3	2	2	3	3
SNP_A-2145354	1	1	1	1	1	1	1	1	1	1	1	1
SNP_A-2145378	3	3	3	3	3	3	3	3	3	3	3	3
SNP_A-2146427	3	3	3	3	3	3	3	3	2	2	3	3
SNP_A-2146532	1	1	2	2	2	2	2	2	1	1	1	1
SNP_A-2147874	1	1	1	1	1	1	1	1	1	1	2	2
SNP_A-2148142	1	1	1	1	1	1	1	1	1	1	1	1
SNP_A-2148607	2	2	2	2	3	3	3	3	3	3	2	2
SNP_A-4227143	3	3	3	3	3	3	3	3	3	3	3	3
SNP_A-4227177	2	2	2	2	2	2	3	3	3	3	2	2
SNP_A-2149378	1	1	2	2	2	2	2	2	3	3	3	3
SNP_A-4227207	3	3	3	3	3	3	2	2	1	1	2	2
SNP_A-2149453	1	1	1	1	1	1	3	3	3	3	2	2
SNP_A-2149580	1	1	1	1	2	2	3	3	3	3	2	2
SNP_A-2150008	3	3	2	2	3	3	3	3	3	3	2	2
SNP_A-2150070	1	1	2	2	2	2	3	3	3	3	3	3
SNP_A-2150282	1	1	1	1	2	2	1	1	1	1	1	1
SNP_A-2150304	3	3	3	3	2	2	1	1	3	3	2	2
SNP_A-2150805	1	1	1	1	1	1	1	1	3	3	1	1
SNP_A-2151457	3	3	3	3	3	3	3	3	3	3	3	3
SNP_A-4227477	3	3	3	3	3	3	3	3	3	3	3	3
SNP_A-2152510	2	2	2	2	3	3	3	3	3	3	3	3
SNP_A-4227586	1	1	2	2	1	1	2	2	3	3	3	3
SNP_A-2153421	3	3	2	2	2	2	2	2	1	1	2	2
SNP_A-2153527	3	3	3	3	3	3	3	3	3	3	2	2
SNP_A-4227693	1	1	2	2	2	2	1	1	2	2	2	2
SNP_A-2154255	1	1	2	2	2	2	2	2	3	3	2	2
SNP_A-2155207	1	1	2	2	2	2	1	1	3	3	2	2
SNP_A-2156738	1	1	1	1	2	2	2	2	1	1	1	1
SNP_A-2156743	2	2	2	2	3	3	3	3	2	2	1	1
SNP_A-2157575	1	1	1	1	1	1	1	1	1	1	1	1
SNP_A-4228054	1	1	1	1	2	2	1	1	1	1	1	1
SNP_A-2158239	3	3	2	2	3	3	3	3	3	3	3	3
SNP_A-2158264	1	1	2	2	1	1	1	1	1	1	1	1
SNP_A-4186553	3	3	3	3	3	3	3	3	3	3	3	3
SNP_A-4228123	3	3	2	2	3	3	3	3	3	3	3	3
SNP_A-2158719	3	3	3	3	3	3	3	3	3	3	3	3
SNP_A-4286670	3	3	3	3	3	3	3	3	3	3	3	3
SNP_A-4228176	1	1	1	1	2	2	1	1	1	1	1	1
SNP_A-2159116	3	3	3	3	2	2	3	3	3	3	3	3
SNP_A-4286673	3	3	3	3	2	2	3	3	3	3	3	3
SNP_A-2159128	3	3	3	3	2	2	3	3	3	3	3	3
SNP_A-2162731	1	2	2	2	3	3	3	3	1	1	1	1
SNP_A-2163209	2	2	1	1	3	3	2	2	1	1	1	1
SNP_A-2163431	2	2	3	3	2	2	3	3	3	3	3	3
SNP_A-2164051	2	2	3	3	1	1	2	2	3	3	3	3
SNP_A-2164338	3	3	3	3	2	2	3	3	3	3	3	3
SNP_A-2164454	1	1	1	1	1	1	1	1	1	1	1	1
SNP_A-4228691	3	3	3	3	3	3	3	3	3	3	3	3
SNP_A-2164781	1	1	1	1	1	1	1	1	1	1	1	1
SNP_A-2164785	3	3	3	3	3	3	3	3	3	3	3	3
SNP_A-2164789	3	3	3	3	3	3	3	3	3	3	3	3
SNP_A-2165133	3	3	2	2	3	3	3	3	3	3	3	3
SNP_A-4228755	1	1	2	2	1	1	1	1	1	1	1	1
SNP_A-2165360	1	1	1	1	2	2	1	1	1	1	1	1
SNP_A-4228782	3	3	3	3	3	3	3	3	2	2	3	3
SNP_A-4228893	1	1	1	1	1	1	2	2	2	2	1	1
SNP_A-2166655	1	1	3	3	1	1	3	3	2	2	2	2
SNP_A-4287496	1	1	1	1	1	1	1	1	1	1	1	1
SNP_A-2166855	3	3	3	3	2	2	1	1	2	2	3	3
SNP_A-4228934	1	1	1	1	1	1	1	1	1	1	1	1
SNP_A-4287541	2	2	1	1	1	1	1	1	2	2	2	2
SNP_A-2167420	3	3	2	2	3	3	3	3	3	3	2	2
SNP_A-4228985	2	2	3	3	3	3	3	3	2	2	2	2
SNP_A-2167997	1	1	2	2	2	2	1	1	1	1	1	1
SNP_A-4287669	2	2	2	2	1	1	1	1	1	1	2	2
SNP_A-4229057	2	2	2	2	2	2	2	2	2	2	2	2
SNP_A-2168463	3	3	3	3	2	2	3	3	3	3	3	3
SNP_A-4287699	2	2	2	2	2	2	2	2	2	2	2	2
SNP_A-4287709	3	3	3	3	3	3	3	3	3	3	3	3
SNP_A-2168779	3	3	3	3	3	3	2	2	2	2	3	3
SNP_A-2169168	3	3	3	3	3	3	3	3	3	3	3	3
SNP_A-2169777	3	3	2	2	3	3	3	3	3	3	3	3
SNP_A-2169781	2	2	2	2	3	3	3	3	3	3	3	3
SNP_A-2170439	2	2	2	2	2	2	1	1	1	1	1	1
SNP_A-4288000	3	3	3	3	3	3	3	3	3	3	3	3
SNP_A-2171046	1	1	1	1	1	1	1	1	1	1	1	1
SNP_A-2171341	1	1	2	2	3	3	1	1	1	1	3	3
SNP_A-4288053	1	1	1	1	1	1	1	1	1	1	1	1
SNP_A-2171752	1	1	1	1	3	3	1	1	1	1	1	1
SNP_A-2171761	3	3	2	2	3	3	3	3	3	3	1	1
SNP_A-4288070	1	1	1	1	2	2	1	1	1	1	1	1
SNP_A-2171829	3	3	2	2	1	1	3	3	3	3	1	1
SNP_A-4229328	1	1	2	2	1	1	1	1	1	1	3	3
SNP_A-2172025	2	2	3	3	3	3	2	2	1	1	3	3
SNP_A-2172038	1	1	1	1	2	2	1	1	1	1	1	1
SNP_A-4288102	3	3	3	3	3	3	3	3	3	3	3	3
SNP_A-2173054	3	3	3	3	3	3	3	3	3	3	3	3
SNP_A-2173243	1	1	1	1	1	1	1	1	1	1	1	1
SNP_A-2173470	3	3	3	3	2	2	2	2	2	2	3	3
SNP_A-4229651	1	1	1	1	3	3	1	1	1	1	1	1
SNP_A-2175832	2	2	1	1	1	1	1	1	1	1	2	2
SNP_A-2176156	1	1	1	1	1	1	2	2	1	1	1	1
SNP_A-4288584	2	2	3	3	3	3	3	3	3	3	3	3
SNP_A-2176438	2	2	3	3	3	3	3	3	3	3	3	3
SNP_A-2176802	3	3	3	3	1	2	3	3	3	3	3	3
SNP_A-4187315	3	3	3	3	3	3	3	3	3	3	3	3
SNP_A-2177421	1	1	2	2	1	1	2	2	2	2	1	1
SNP_A-2177755	3	3	3	3	3	3	3	3	3	3	3	3
SNP_A-2179798	1	1	3	3	2	2	1	1	2	2	2	2
SNP_A-2180126	1	1	3	3	3	3	2	2	2	2	3	3
SNP_A-2180251	1	1	3	3	1	1	1	1	2	2	2	2
SNP_A-4230082	1	1	1	1	1	1	2	2	1	1	1	1
SNP_A-4230084	2	2	1	1	1	1	1	1	1	1	1	1
SNP_A-2180679	3	2	3	3	1	1	2	2	3	3	3	3
SNP_A-2180692	3	3	2	2	1	1	2	2	3	3	2	2
SNP_A-2180771	1	1	1	1	2	2	2	2	1	1	2	2
SNP_A-2180884	1	1	1	1	2	2	2	2	1	1	2	2
SNP_A-2180911	3	3	3	3	2	2	2	2	3	3	2	2
SNP_A-2181170	1	1	2	2	1	1	1	1	1	1	1	1
SNP_A-4230166	3	3	3	3	3	3	2	2	3	3	3	3
SNP_A-4230274	3	3	2	2	2	2	2	2	3	3	3	3
SNP_A-4230306	3	3	2	2	2	2	3	3	3	3	3	3
SNP_A-4230314	1	1	2	2	2	2	1	1	1	1	1	1
SNP_A-2183708	1	1	1	1	2	2	1	1	1	1	1	1
SNP_A-4289524	1	1	1	1	2	2	1	1	1	1	1	1
SNP_A-2185667	3	3	3	3	3	3	3	3	3	3	2	2
SNP_A-2185668	1	1	1	1	2	2	2	2	2	2	2	2
SNP_A-2185686	1	1	1	1	2	2	1	1	1	1	1	1
SNP_A-4289729	1	1	1	1	1	1	1	1	1	1	2	2
SNP_A-4289765	3	3	3	3	3	3	2	2	2	2	2	2
SNP_A-2186405	1	1	1	1	1	1	3	2	1	1	1	1
SNP_A-2186917	3	3	3	3	3	3	3	3	2	2	2	2
SNP_A-4230720	1	1	2	2	1	1	1	1	1	1	1	1
SNP_A-2187886	3	3	1	1	2	2	1	1	3	3	1	1
SNP_A-2190164	3	3	3	3	3	3	2	2	3	3	3	3
SNP_A-4290324	1	1	2	2	1	1	2	2	2	2	2	2
SNP_A-4231020	3	3	3	3	2	2	3	3	2	2	3	3
SNP_A-2191410	2	2	1	1	2	2	2	2	1	1	1	1
SNP_A-4231069	2	2	3	3	2	2	2	2	3	3	3	3
SNP_A-2192592	2	2	2	2	1	1	1	1	1	1	1	1
SNP_A-2192600	3	3	3	3	2	2	3	3	3	3	3	3
SNP_A-2192667	2	2	2	2	3	3	3	3	3	3	3	3
SNP_A-2193154	1	1	1	1	1	1	1	1	1	1	1	1
SNP_A-2193234	3	3	3	3	3	3	3	3	3	3	3	3
SNP_A-2193901	3	3	3	3	2	2	3	3	3	3	3	3
SNP_A-2194388	1	1	3	3	2	2	2	2	1	1	1	1
SNP_A-2194774	1	1	1	1	1	1	1	1	1	1	1	1
SNP_A-2194787	1	1	1	1	2	2	2	2	1	1	1	1
SNP_A-2195276	1	1	2	2	2	2	2	2	2	2	2	2
SNP_A-2195792	3	3	3	3	3	3	3	3	3	3	3	3
SNP_A-4231457	3	3	3	3	3	3	3	3	3	3	3	3
SNP_A-2196436	1	1	2	2	1	1	2	2	1	1	1	1
SNP_A-2196955	2	2	2	2	1	1	1	1	1	1	2	2
SNP_A-2197245	2	2	2	2	1	1	1	1	2	2	2	2
SNP_A-2197316	3	3	3	3	3	3	3	3	3	3	3	3
SNP_A-2197529	3	3	3	3	3	3	3	3	3	3	3	3
SNP_A-2197548	3	3	3	3	1	1	3	3	3	3	3	3
SNP_A-4231671	2	2	2	2	3	3	1	1	2	2	2	2
SNP_A-2198820	3	3	3	3	3	3	3	3	2	2	2	2
SNP_A-4231694	2	2	2	2	1	1	1	1	1	1	1	1
SNP_A-4291241	2	2	2	2	3	3	3	3	3	3	3	3
SNP_A-4231718	2	2	2	2	1	1	3	3	2	2	2	2
SNP_A-4231801	1	1	3	3	3	3	3	3	2	2	3	3
SNP_A-4231829	3	3	3	3	2	2	1	1	3	3	3	3
SNP_A-2200360	1	1	2	2	1	1	1	1	2	2	2	2
SNP_A-2201805	3	3	3	3	2	2	3	3	3	3	3	3
SNP_A-4231959	3	3	3	3	2	2	2	2	3	3	3	3
SNP_A-4231968	1	1	1	1	1	1	1	1	1	1	2	2
SNP_A-4231969	3	3	3	3	2	2	2	2	3	3	3	3
SNP_A-4291670	1	1	2	2	1	1	2	2	2	2	1	1
SNP_A-4291687	3	3	2	2	3	3	2	2	2	2	3	3
SNP_A-2202803	3	3	2	2	3	3	2	2	2	2	3	3
SNP_A-4232030	1	1	2	2	1	1	1	1	2	2	1	1
SNP_A-2203989	1	1	2	2	1	1	1	1	1	1	2	2
SNP_A-4232196	1	1	1	1	2	2	2	2	1	1	1	1
SNP_A-2205082	2	2	3	3	3	3	3	3	3	3	3	3
SNP_A-2206350	3	3	2	2	3	3	3	3	3	3	3	3
SNP_A-2206660	1	1	2	2	2	2	2	3	2	2	1	1
SNP_A-2207550	1	1	2	2	2	2	2	2	1	1	1	1
SNP_A-2207572	3	3	2	2	2	2	2	2	3	3	3	3
SNP_A-2207767	2	2	2	2	3	3	3	3	2	2	3	3
SNP_A-4292361	3	3	2	2	2	2	1	1	1	1	2	2
SNP_A-2209666	1	1	1	1	1	1	1	1	2	2	2	2
SNP_A-2209697	1	1	1	1	3	3	3	3	2	2	2	2
SNP_A-2209723	1	1	1	1	1	1	1	1	2	2	2	2
SNP_A-4232665	3	3	2	2	1	1	3	3	3	3	2	2
SNP_A-4232666	3	3	3	3	3	3	3	3	3	3	3	3
SNP_A-4232668	1	1	1	1	1	1	1	1	1	1	1	1
SNP_A-4292643	1	1	2	2	2	2	1	1	1	1	2	2
SNP_A-2210387	3	3	1	1	1	1	1	1	2	2	1	1
SNP_A-4232670	3	3	1	1	1	1	1	1	2	2	1	1
SNP_A-4292678	1	1	2	2	2	2	2	2	2	2	2	2
SNP_A-2210590	1	1	2	2	2	2	2	2	2	2	2	2
SNP_A-4232700	1	1	1	1	1	1	1	1	1	1	1	1
SNP_A-2210652	3	3	3	3	3	3	3	3	3	3	3	3
SNP_A-2210653	3	3	2	2	2	2	3	3	3	3	2	2
SNP_A-2210764	3	3	2	2	1	1	3	3	3	3	2	2
SNP_A-4232711	3	3	3	3	3	3	1	1	2	1	3	3
SNP_A-4232725	1	1	1	1	1	1	1	1	1	1	1	1
SNP_A-2211024	3	3	2	2	3	3	3	3	3	3	2	2
SNP_A-4292734	1	1	1	1	1	1	2	2	1	1	2	2
SNP_A-4292753	1	1	1	1	2	2	1	1	1	1	1	1
SNP_A-4292776	3	3	1	1	3	3	2	2	1	1	1	1
SNP_A-2211501	3	3	3	3	2	2	3	3	3	3	3	3
SNP_A-4292910	3	3	3	3	2	2	3	3	3	3	2	2
SNP_A-4292925	1	1	1	1	3	3	1	1	1	1	2	2
SNP_A-4292931	3	3	3	3	2	2	3	3	3	3	2	2
SNP_A-4232865	1	1	2	2	3	3	1	1	3	3	2	2
SNP_A-2212720	3	3	2	2	3	3	3	3	3	3	3	3
SNP_A-2212746	3	3	2	2	2	2	3	3	3	3	3	3
SNP_A-4232890	1	1	2	2	1	1	1	1	1	1	1	1
SNP_A-4232900	3	3	2	2	1	1	3	3	3	3	3	3
SNP_A-2213196	1	1	1	1	1	1	1	1	1	1	1	1
SNP_A-4232931	3	3	2	2	1	1	3	3	2	2	1	1
SNP_A-2213596	1	1	2	2	1	1	1	1	1	1	1	1
SNP_A-2214618	1	1	2	2	1	1	1	1	1	1	1	1
SNP_A-2214643	3	3	3	3	2	2	3	3	3	3	3	3
SNP_A-2216058	1	1	1	1	1	1	1	1	1	1	1	1
SNP_A-2216063	2	2	2	2	2	2	1	1	2	2	3	3
SNP_A-2216977	1	1	1	1	1	1	1	1	1	1	1	1
SNP_A-2217184	2	2	2	2	2	2	1	1	1	1	1	1
SNP_A-2217214	1	1	1	1	2	2	3	3	2	2	2	2
SNP_A-2217375	2	2	2	2	2	2	3	3	1	1	2	2
SNP_A-4293512	1	1	1	1	1	1	3	3	1	1	2	2
SNP_A-4293513	1	1	1	1	1	1	3	3	1	1	2	2
SNP_A-2217428	2	2	2	2	1	1	3	3	3	3	3	3
SNP_A-2217460	3	3	3	3	3	3	3	3	2	2	3	3
SNP_A-4233272	3	3	3	3	1	2	2	2	3	3	2	2
SNP_A-2217480	3	3	3	3	3	3	2	2	3	3	2	2
SNP_A-2217711	2	2	3	3	1	1	1	1	2	2	2	2
SNP_A-4293609	3	3	2	2	2	2	1	1	2	2	1	1
SNP_A-4233328	3	3	2	2	2	2	1	1	2	2	1	1
SNP_A-2219066	2	2	3	3	3	3	3	3	2	2	2	2
SNP_A-4233498	2	2	3	3	3	3	3	3	3	3	3	3
SNP_A-2221267	3	3	3	3	3	3	3	3	3	3	3	3
SNP_A-2221284	3	3	3	3	3	3	3	3	3	3	3	3
SNP_A-4293964	2	2	2	2	1	1	2	2	1	1	1	1
SNP_A-2221321	3	3	2	2	3	3	3	3	2	2	3	3
SNP_A-2221333	3	3	3	3	2	2	2	2	3	3	2	2
SNP_A-2221656	3	3	3	3	3	3	3	3	3	3	3	3
SNP_A-2221923	3	3	2	2	2	2	3	3	2	2	2	2
SNP_A-2222756	3	3	3	3	3	3	3	3	3	3	3	3
SNP_A-2222789	1	1	2	2	2	2	1	1	2	2	1	1
SNP_A-4294149	2	2	3	3	3	3	3	3	3	3	3	3
SNP_A-2222879	2	2	2	2	1	1	2	2	3	3	2	2
SNP_A-2223235	2	2	2	2	3	3	2	2	2	2	2	2
SNP_A-2223794	2	2	2	2	3	3	1	1	2	2	3	3
SNP_A-2224116	1	1	1	1	1	1	1	1	1	1	1	1
SNP_A-2224298	3	3	2	2	3	3	3	3	3	3	3	3
SNP_A-4294406	1	1	1	1	1	1	3	3	2	2	1	1
SNP_A-2225012	3	3	1	1	3	3	1	1	3	3	3	3
SNP_A-2225019	1	1	3	3	3	3	3	3	1	1	1	1
SNP_A-2225037	3	3	2	2	3	3	1	1	3	3	3	3
SNP_A-2225546	1	1	2	2	3	3	2	2	1	1	2	2
SNP_A-2226034	1	1	3	3	3	3	3	3	3	3	2	2
SNP_A-2226223	3	3	1	1	1	1	1	1	1	1	2	2
SNP_A-2226589	3	3	3	3	3	3	3	3	3	3	3	3
SNP_A-4234130	1	1	1	1	2	2	1	1	1	1	1	1
SNP_A-2227330	3	3	3	3	2	2	3	3	3	3	3	3
SNP_A-4234237	1	1	1	1	3	3	1	1	1	1	1	1
SNP_A-2228193	1	1	1	1	1	1	1	1	1	1	1	1
SNP_A-4234307	3	3	3	3	3	3	3	3	2	2	2	2
SNP_A-2229035	1	1	1	1	1	1	1	1	2	2	2	2
SNP_A-2229692	2	2	1	1	1	1	2	2	1	1	1	1
SNP_A-2230049	2	2	2	2	1	1	1	1	2	2	2	2
SNP_A-2230063	2	2	2	2	3	3	3	3	2	2	2	2
SNP_A-2230612	2	2	2	2	3	3	3	3	1	1	1	1
SNP_A-4189442	2	2	3	3	3	3	2	2	3	3	3	3
SNP_A-2231200	1	1	1	1	1	1	1	1	1	1	1	1
SNP_A-4295185	3	3	3	3	3	3	3	3	3	3	3	3
SNP_A-4295226	1	1	2	2	1	1	2	2	1	1	1	1
SNP_A-2233140	3	3	3	3	3	3	2	2	3	3	2	2
SNP_A-4295431	1	1	1	1	1	1	1	1	2	2	1	1
SNP_A-4234628	1	1	1	1	1	1	1	1	2	2	1	1
SNP_A-4234629	1	1	1	1	1	1	1	1	1	1	1	1
SNP_A-4234631	3	3	3	3	3	3	2	2	3	3	2	2
SNP_A-2233164	1	1	1	1	1	1	1	1	2	2	1	1
SNP_A-2233422	3	3	3	3	3	3	3	3	3	3	3	3
SNP_A-4295496	3	3	3	3	3	3	3	3	2	2	3	3
SNP_A-2233778	1	1	1	1	1	1	1	1	2	2	1	1
SNP_A-4234741	2	2	3	3	3	3	2	3	3	3	3	3
SNP_A-2234627	2	2	2	2	1	1	3	3	3	3	1	1
SNP_A-2234826	2	2	2	2	3	3	3	3	3	3	1	1
SNP_A-2235095	3	3	3	3	3	3	3	3	3	3	3	3
SNP_A-4234787	2	2	2	2	1	1	3	3	3	3	3	3
SNP_A-2235510	2	2	3	3	2	2	3	3	3	3	3	3
SNP_A-2235561	3	3	3	3	2	2	3	3	3	3	3	3
SNP_A-2235784	1	1	1	1	2	2	1	1	1	1	1	1
SNP_A-4295781	1	1	1	1	2	2	1	1	1	1	1	1
SNP_A-2236017	3	3	3	3	2	2	3	3	3	3	3	3
SNP_A-2236022	2	2	2	2	3	3	3	3	3	3	3	3
SNP_A-2236476	1	1	1	1	2	2	1	1	1	1	1	1
SNP_A-2237432	2	2	2	2	1	1	3	3	3	3	2	2
SNP_A-2237439	3	3	3	3	2	2	3	3	3	3	2	2
SNP_A-2239025	1	1	1	1	2	2	1	1	1	1	1	1
SNP_A-2239415	2	2	2	2	1	1	1	1	1	1	1	1
SNP_A-2239751	2	2	2	2	3	3	1	1	1	1	2	2
SNP_A-4296245	3	3	3	3	2	2	3	3	3	3	3	3
SNP_A-2240207	2	2	2	2	2	2	1	1	1	1	1	1
SNP_A-2240221	3	3	3	3	3	3	3	3	3	3	3	3
SNP_A-4235181	1	1	1	1	1	1	1	1	1	1	1	1
SNP_A-2240562	3	3	3	3	1	1	3	3	3	3	3	3
SNP_A-2241023	3	3	3	3	1	1	3	3	3	3	3	3
SNP_A-4235238	3	3	3	3	3	3	3	3	3	3	2	2
SNP_A-4235246	3	3	3	3	1	1	3	3	3	3	3	3
SNP_A-4296401	2	2	2	2	1	1	3	3	2	2	2	2
SNP_A-2241469	2	2	2	2	3	3	1	1	2	2	2	2
SNP_A-2241891	3	3	2	2	2	2	3	3	3	3	3	3
SNP_A-4235395	3	3	2	2	3	3	1	1	2	2	2	2
SNP_A-4235400	1	1	2	2	1	1	3	3	2	2	2	2
SNP_A-4296612	1	1	1	1	1	1	1	1	1	1	1	1
SNP_A-4296617	3	3	2	2	3	3	2	2	1	1	1	1
SNP_A-4296672	2	2	3	3	2	2	3	3	3	3	3	3
SNP_A-2243777	2	2	2	2	2	2	3	3	3	3	3	3
SNP_A-2243794	1	1	1	1	1	1	1	1	2	2	1	1
SNP_A-2243796	1	1	2	2	1	1	3	3	2	2	3	3
SNP_A-2243832	3	3	3	3	3	3	3	3	3	3	3	3
SNP_A-2244171	3	3	3	3	3	3	3	3	3	3	2	2
SNP_A-2244203	2	2	2	1	1	1	1	1	1	1	1	1
SNP_A-2244498	3	3	3	3	2	2	2	2	1	1	3	3
SNP_A-2244505	3	3	3	3	2	2	2	2	1	1	3	3
SNP_A-4235519	2	2	1	1	1	1	2	2	3	3	2	2
SNP_A-4235520	2	2	1	1	1	1	1	1	1	1	2	2
SNP_A-4235521	1	1	1	1	3	3	1	1	1	1	1	1
SNP_A-2244700	2	2	3	3	1	1	2	2	1	1	2	2
SNP_A-2244840	2	2	1	1	3	3	2	2	3	3	2	2
SNP_A-4235532	3	3	3	3	1	1	2	2	2	2	3	3
SNP_A-4235534	2	2	1	1	3	3	2	2	3	3	2	2
SNP_A-4235535	2	2	1	1	3	3	2	2	3	3	2	2
SNP_A-2244885	2	2	1	1	3	3	2	2	3	3	2	2
SNP_A-2244895	3	3	3	3	1	1	2	2	2	2	3	3
SNP_A-2244906	2	2	3	3	1	1	2	2	1	1	2	2
SNP_A-2244932	2	2	1	1	3	3	2	2	3	3	2	2
SNP_A-2245080	1	1	1	1	1	1	1	1	2	2	1	1
SNP_A-2245086	1	1	1	1	3	3	2	2	2	2	1	1
SNP_A-2245193	2	2	3	3	3	3	3	3	2	2	2	2
SNP_A-2245394	1	1	1	1	1	1	1	1	1	1	1	1
SNP_A-4235593	2	2	2	2	1	1	1	1	2	2	2	2
SNP_A-4296918	1	1	2	2	2	2	1	1	1	1	2	2
SNP_A-2246297	1	1	3	3	2	2	2	2	3	3	3	3
SNP_A-4235647	1	1	1	1	1	1	1	1	1	1	1	1
SNP_A-2247023	3	3	1	1	1	1	2	2	1	1	1	1
SNP_A-2247045	1	1	3	3	3	3	2	2	3	3	3	3
SNP_A-4235712	1	1	3	3	3	3	2	2	3	3	3	3
SNP_A-2247200	1	1	3	3	3	3	2	2	3	3	3	3
SNP_A-2247215	3	3	3	3	3	3	3	3	3	3	3	3
SNP_A-2247223	3	3	3	3	3	3	3	3	3	3	3	3
SNP_A-4235758	3	3	3	3	2	2	3	3	3	3	3	3
SNP_A-2247637	3	3	3	3	3	3	3	3	3	3	3	3
SNP_A-4297193	3	3	3	3	2	2	3	3	3	3	3	3
SNP_A-2248047	3	3	3	3	3	3	3	3	3	3	3	3
SNP_A-2248058	3	3	3	3	2	2	3	3	3	3	3	3
SNP_A-2248743	3	3	3	3	2	2	3	3	3	3	3	3
SNP_A-4297342	3	3	1	1	2	2	2	2	1	1	1	1
SNP_A-4297346	3	3	1	1	3	3	2	2	1	1	1	1
SNP_A-4190187	3	3	3	3	3	3	3	3	3	3	3	3
SNP_A-4297360	1	1	1	1	1	1	1	1	1	1	1	1
SNP_A-4297437	3	3	2	2	1	1	3	3	3	3	3	3
SNP_A-2250664	2	2	3	3	2	2	3	3	2	2	1	1
SNP_A-2250784	3	3	3	3	3	3	2	2	3	3	3	3
SNP_A-2250927	1	1	1	1	1	1	1	1	1	1	1	1
SNP_A-2251018	3	3	3	3	3	3	3	3	2	2	3	3
SNP_A-2251201	2	2	3	3	1	1	2	2	2	2	1	1
SNP_A-4297528	2	2	1	1	2	2	1	1	2	2	3	3
SNP_A-4236129	1	1	1	1	1	1	1	1	1	1	1	1
SNP_A-2251803	3	3	3	3	3	3	3	3	3	3	3	3
SNP_A-4236175	3	3	3	3	1	1	3	3	1	1	3	3
SNP_A-2252367	1	1	1	1	3	3	1	1	3	3	1	1
SNP_A-2252395	3	3	3	3	1	1	3	3	1	1	3	3
SNP_A-4236194	3	3	3	3	1	1	3	3	1	1	3	3
SNP_A-2253016	2	2	1	1	1	1	1	1	2	2	1	1
SNP_A-4297781	1	1	1	1	2	2	1	1	1	1	1	1
SNP_A-4236281	3	3	3	3	3	3	3	3	3	3	3	3
SNP_A-4236358	3	3	1	1	3	3	3	3	3	3	3	3
SNP_A-4236369	1	1	1	1	1	1	1	1	1	1	1	1
SNP_A-2254317	2	2	3	3	1	1	2	2	3	3	3	3
SNP_A-4298021	3	3	3	3	2	2	3	3	3	3	3	3
SNP_A-4236466	1	1	3	3	3	3	1	1	2	2	1	1
SNP_A-2256127	2	2	3	3	1	1	1	1	2	2	1	1
SNP_A-4298222	3	3	2	2	3	3	2	2	3	3	2	2
SNP_A-2257417	3	3	3	3	3	3	3	3	2	2	3	3
SNP_A-2258483	3	3	1	1	2	2	2	2	2	2	1	1
SNP_A-2258496	1	1	3	3	1	1	3	2	2	2	3	3
SNP_A-2258509	3	3	1	1	3	3	2	2	2	2	1	1
SNP_A-2258815	2	2	1	1	1	1	1	1	2	2	1	1
SNP_A-2259012	2	2	2	2	1	1	1	1	3	3	1	1
SNP_A-2259118	2	2	2	2	1	1	2	2	1	1	2	2
SNP_A-4236745	2	2	2	2	3	3	2	2	3	3	2	2
SNP_A-2259266	3	3	1	1	3	3	3	3	2	2	2	2
SNP_A-2260234	2	2	1	1	1	1	1	1	3	3	2	2
SNP_A-4298552	2	2	2	2	2	2	1	1	3	3	2	2
SNP_A-2260847	3	3	3	3	3	3	2	2	3	3	2	2
SNP_A-4237050	3	3	3	3	3	3	3	3	2	2	3	3
SNP_A-2262717	3	3	2	2	3	3	2	2	2	2	3	3
SNP_A-4298819	3	3	2	2	3	3	2	2	2	2	3	3
SNP_A-2263245	1	1	1	1	2	2	1	1	1	1	2	2
SNP_A-2263252	1	1	1	1	1	1	1	1	2	2	1	1
SNP_A-2263260	3	3	3	3	3	3	3	3	2	2	3	3
SNP_A-4298923	2	2	1	1	2	2	1	1	2	2	2	2
SNP_A-2263636	2	2	2	2	2	2	2	2	3	3	1	1
SNP_A-2263661	2	2	2	2	2	2	2	2	1	1	3	3
SNP_A-2263675	1	1	1	1	1	1	1	1	1	1	1	1
SNP_A-2264133	2	2	3	3	3	3	3	3	3	3	3	3
SNP_A-4237214	2	2	3	3	2	2	3	3	3	3	3	3
SNP_A-2264628	2	2	1	1	3	3	1	1	2	2	1	1
SNP_A-2265226	2	2	2	2	1	1	1	1	2	2	1	1
SNP_A-4299142	2	2	2	2	1	1	1	1	1	1	1	1
SNP_A-2265601	2	2	2	2	3	3	3	3	3	3	3	3
SNP_A-4237302	2	2	2	2	3	3	3	3	2	2	3	3
SNP_A-2266895	2	2	2	2	1	1	1	1	2	2	1	1
SNP_A-2267763	2	2	1	1	2	2	2	2	3	3	1	1
SNP_A-4299496	3	3	3	3	3	3	2	2	3	3	3	3
SNP_A-4299640	3	3	2	2	3	3	3	3	3	3	1	1
SNP_A-2269436	1	1	2	2	1	1	1	1	1	1	2	2
SNP_A-2269633	2	2	2	2	1	1	2	2	2	2	2	2
SNP_A-4237613	2	2	2	2	3	3	2	2	3	3	2	2
SNP_A-2270179	2	2	1	1	3	3	2	2	2	2	2	2
SNP_A-2270454	1	1	1	1	2	2	1	1	2	2	1	1
SNP_A-2270564	3	3	3	3	2	2	3	3	2	2	3	3
SNP_A-2271968	1	1	1	1	1	1	1	1	1	1	1	1
SNP_A-2272354	1	1	1	1	1	1	2	2	2	2	3	3
SNP_A-2272474	3	3	3	3	3	3	3	3	3	3	2	2
SNP_A-2272485	3	3	3	3	3	3	3	3	3	3	3	3
SNP_A-2272509	2	2	2	2	3	3	3	3	3	3	3	3
SNP_A-4300000	2	2	2	2	3	3	3	3	3	3	3	3
SNP_A-4237846	2	2	2	2	1	1	1	1	1	1	1	1
SNP_A-2272885	2	2	2	2	1	1	1	1	1	1	1	1
SNP_A-4237873	2	2	2	2	2	2	2	2	2	2	3	3
SNP_A-2273206	1	1	1	1	1	1	1	1	1	1	2	2
SNP_A-2274118	1	1	1	1	1	1	1	1	1	1	1	1
SNP_A-2274368	2	2	3	3	3	3	3	3	3	3	2	2
SNP_A-2275067	1	1	1	1	1	1	1	1	1	1	1	1
SNP_A-2275362	2	2	3	3	3	3	3	3	3	3	3	3
SNP_A-2275371	1	1	1	1	1	1	1	1	1	1	1	1
SNP_A-2275501	2	2	1	1	1	1	1	1	1	1	1	1
SNP_A-4238073	1	1	2	2	1	1	2	2	1	1	3	3
SNP_A-4300370	2	2	1	1	1	1	1	1	1	1	1	1
SNP_A-4300371	3	3	3	3	3	3	3	3	3	3	3	3
SNP_A-4238123	2	2	2	2	1	1	3	3	3	3	1	1
SNP_A-2276551	2	2	1	1	1	1	1	1	1	1	2	2
SNP_A-2276557	2	2	1	1	1	1	1	1	1	1	2	2
SNP_A-2276792	2	2	3	3	3	3	3	3	3	3	2	2
SNP_A-2276800	2	2	1	1	1	1	1	1	1	1	2	2
SNP_A-2276810	1	1	1	1	1	1	1	1	1	1	2	2
SNP_A-2280701	2	2	2	2	2	2	1	1	3	3	2	2
SNP_A-2281432	2	2	2	2	1	1	3	3	1	1	2	2
SNP_A-2284486	2	2	1	1	2	2	2	2	1	1	1	1
SNP_A-2284779	1	1	1	1	1	1	2	2	3	3	1	1
SNP_A-2284796	2	2	3	3	1	1	2	2	1	1	1	1
SNP_A-2284901	2	2	3	3	3	3	3	3	2	2	1	1
SNP_A-4301451	3	3	3	3	3	3	3	3	3	3	3	3
SNP_A-2285630	3	3	3	3	3	3	3	3	3	3	3	3
SNP_A-2286252	1	1	3	3	2	2	1	1	1	1	2	2
SNP_A-2286297	2	2	1	1	2	2	2	2	1	1	1	1
SNP_A-2286438	2	2	3	3	3	3	3	3	3	3	3	3
SNP_A-2286468	3	3	3	3	3	3	3	3	3	3	3	3
SNP_A-2286481	2	2	3	3	3	3	2	2	3	3	3	3
SNP_A-2286712	1	1	1	1	1	1	1	1	1	1	1	1
SNP_A-2286730	1	1	3	3	2	2	1	1	1	1	2	2
SNP_A-2286742	3	3	3	3	3	3	3	3	3	3	3	3
SNP_A-2287539	2	2	1	1	1	1	3	3	2	2	2	2
SNP_A-4239069	3	3	3	3	3	3	3	3	3	3	3	3
SNP_A-2287714	2	2	1	1	1	1	3	3	3	3	2	2
SNP_A-2287797	2	1	3	3	3	3	1	1	2	2	2	2
SNP_A-4239108	3	2	1	1	1	1	3	3	2	3	2	2
SNP_A-2288222	2	2	3	3	3	3	1	1	2	2	2	2
SNP_A-2288229	3	3	3	3	3	3	3	3	3	3	3	3
SNP_A-2288236	2	2	3	3	3	3	1	1	1	1	2	2
SNP_A-4301797	2	2	3	3	3	3	1	1	2	2	2	2
SNP_A-4301800	2	2	1	1	1	1	1	1	1	1	1	1
SNP_A-4239160	2	2	2	2	2	2	1	1	2	2	2	2
SNP_A-2288755	3	3	3	3	2	2	3	3	2	2	3	3
SNP_A-2288764	1	1	1	1	2	2	1	1	2	2	1	1
SNP_A-4301860	2	2	3	3	2	2	1	1	2	2	2	2
SNP_A-2289186	2	2	2	2	3	3	3	3	3	3	3	3
SNP_A-2289689	3	3	2	2	2	2	3	3	3	3	3	3
SNP_A-2289761	1	1	2	2	3	3	1	1	1	1	1	1
SNP_A-2289793	3	3	3	3	3	3	3	3	3	3	3	3
SNP_A-2289831	1	1	3	3	3	3	1	1	2	2	2	2
SNP_A-4301969	3	3	1	1	1	1	3	3	2	2	2	2
SNP_A-2290397	2	2	3	3	2	2	3	3	2	2	2	2
SNP_A-2290706	3	3	3	3	3	3	3	3	3	3	3	3
SNP_A-2290885	1	1	1	1	1	1	1	1	1	1	1	1
SNP_A-4239384	3	3	3	3	2	2	2	2	3	3	3	3
SNP_A-4302143	3	3	3	3	2	2	2	2	3	3	3	3
SNP_A-2291225	3	3	3	3	3	3	3	3	3	3	3	3
SNP_A-2291334	2	2	1	1	2	2	2	2	2	2	2	2
SNP_A-2291752	3	3	1	1	2	2	3	3	3	3	2	2
SNP_A-2291762	3	3	1	1	2	2	3	3	3	3	2	2
SNP_A-4302226	3	3	1	1	1	1	3	3	2	2	2	2
SNP_A-2291980	3	3	3	3	3	3	3	3	3	3	3	3
SNP_A-2292182	3	3	1	1	3	3	3	3	3	3	2	2
SNP_A-2292264	3	3	3	3	3	3	3	3	2	2	3	3
SNP_A-4239481	3	3	3	3	1	1	2	2	2	2	3	3
SNP_A-2292490	1	1	1	1	1	1	1	1	1	1	1	1
SNP_A-2293033	2	2	2	2	2	2	2	2	2	2	1	1
SNP_A-2293294	2	2	2	2	3	3	2	2	2	2	3	3
SNP_A-2293297	2	2	3	3	3	3	3	3	3	3	3	3
SNP_A-2293675	1	1	2	2	1	1	2	2	1	1	1	1
SNP_A-2293771	1	1	1	1	3	3	2	2	1	1	1	1
SNP_A-2293792	1	1	1	1	3	3	2	2	2	2	2	2
SNP_A-2293800	1	1	2	2	3	3	3	3	2	2	2	2
SNP_A-2294955	1	1	3	3	1	1	2	2	2	2	1	1
SNP_A-2295255	1	1	1	1	1	1	1	1	1	1	1	1
SNP_A-4302616	3	3	1	1	1	1	1	1	1	1	2	2
SNP_A-2295850	2	2	1	1	1	1	1	1	2	2	2	2
SNP_A-4302703	1	1	1	1	1	1	1	1	2	2	2	2
SNP_A-4239780	1	1	1	1	1	1	2	2	2	2	1	1
SNP_A-2296288	2	2	2	2	1	1	3	3	3	3	2	2
SNP_A-2297458	2	2	1	1	3	3	3	3	3	3	1	1
SNP_A-4239898	3	3	3	3	2	1	1	1	2	2	3	3
SNP_A-4302899	2	2	1	1	3	3	3	3	3	3	1	1
SNP_A-2297648	2	2	1	1	3	3	3	3	3	3	1	1
SNP_A-2298232	3	3	3	3	3	3	3	3	3	3	3	3
SNP_A-2298240	2	2	3	3	1	1	3	3	3	3	2	2
SNP_A-2298487	2	2	3	3	1	1	3	3	3	3	2	2
SNP_A-2298909	3	3	3	3	3	3	3	3	3	3	3	3
SNP_A-4303117	1	1	1	1	1	1	2	2	1	1	1	1
SNP_A-2299741	3	3	3	3	2	2	3	3	3	3	3	3
SNP_A-4240109	2	2	1	1	2	2	2	2	3	3	2	2
SNP_A-4303229	2	2	2	2	1	1	1	1	1	1	1	1
SNP_A-2300296	1	1	1	1	1	1	1	1	1	1	1	1
SNP_A-2300403	2	2	3	3	2	2	2	2	1	1	2	2
SNP_A-2300533	2	2	3	3	2	2	3	3	1	1	2	2
SNP_A-2300837	2	2	3	3	3	3	3	3	1	1	2	2
SNP_A-2300845	3	3	3	3	2	2	2	2	3	3	3	3
SNP_A-2300992	1	1	2	2	1	1	1	1	1	1	1	1
SNP_A-2301243	3	3	2	2	3	3	1	1	2	2	2	2
SNP_A-4240214	3	3	3	3	3	3	3	3	3	3	2	2
SNP_A-2301711	3	3	2	2	3	3	3	3	2	2	1	1
SNP_A-2301716	3	3	2	2	3	3	2	2	3	3	2	2
SNP_A-2302779	1	1	1	1	1	1	1	1	1	1	1	1
SNP_A-2303542	3	3	2	2	3	3	3	3	3	3	3	3
SNP_A-2303664	1	1	2	2	1	1	1	1	1	1	1	1
SNP_A-4240425	2	2	3	3	2	2	3	3	3	3	3	3
SNP_A-2304380	1	1	1	1	1	1	1	1	1	1	3	3
SNP_A-4240511	3	3	3	3	3	3	3	3	2	2	3	3
SNP_A-2305278	1	1	1	1	1	1	1	1	2	2	1	1
SNP_A-2305290	3	3	3	3	3	3	3	3	3	3	3	3
SNP_A-2305719	2	2	2	2	1	1	2	2	1	1	2	2
SNP_A-4303837	1	1	2	2	1	1	2	2	1	1	2	2
SNP_A-2306312	1	1	1	1	3	3	1	1	3	3	1	1
SNP_A-2306313	1	1	1	1	1	1	1	1	1	1	1	1
SNP_A-2307276	2	2	2	2	1	1	1	1	1	1	1	1
SNP_A-4304127	3	3	3	3	2	2	3	3	3	3	3	3
SNP_A-2308525	2	2	3	3	3	3	1	1	1	1	2	2
SNP_A-4240778	1	1	1	1	2	2	1	1	1	1	2	2
SNP_A-4240782	1	1	1	1	2	2	1	1	1	1	2	2
SNP_A-2309330	2	2	3	3	1	1	1	1	2	2	1	1
SNP_A-2309356	2	2	3	3	1	1	3	3	3	3	3	3
SNP_A-2309404	2	2	1	1	3	3	1	1	1	1	2	2
SNP_A-2310025	2	2	3	3	1	1	1	1	2	2	1	1
SNP_A-2310184	3	3	3	3	3	3	1	1	3	3	2	2
SNP_A-2310230	3	3	3	3	3	3	3	3	3	3	3	3
SNP_A-4304400	2	2	3	3	1	1	3	3	3	3	2	2
SNP_A-4304404	2	2	3	3	1	1	1	1	3	3	1	1
SNP_A-2311019	3	3	3	3	3	3	3	3	3	3	3	3
SNP_A-2311041	2	2	1	1	1	1	2	2	2	2	3	3
SNP_A-4304468	2	2	3	3	2	2	1	1	2	2	2	2
SNP_A-2311661	3	3	2	2	2	2	3	3	3	3	3	3
SNP_A-2311886	3	3	2	2	2	2	3	3	3	3	3	3
SNP_A-4304563	1	1	3	3	1	1	2	2	2	2	3	3
SNP_A-4304564	1	1	3	3	3	3	2	2	2	2	3	3
SNP_A-2312120	3	3	1	1	1	1	2	2	2	2	1	1
SNP_A-2312149	3	3	3	3	1	1	3	3	3	3	3	3
SNP_A-4304658	3	3	3	3	3	3	3	3	3	3	3	3
SNP_A-2313119	2	2	1	1	2	2	2	2	1	1	2	2
SNP_A-2313199	2	2	2	2	2	2	2	2	1	1	2	2
SNP_A-4304807	2	2	3	3	2	2	3	3	3	3	2	2
SNP_A-2314124	2	2	3	3	2	2	3	3	3	3	2	2
SNP_A-2314440	2	2	3	3	2	2	3	3	3	3	2	2
SNP_A-2314821	2	2	1	1	2	2	1	1	1	1	2	2
SNP_A-4241331	1	1	3	3	2	2	1	1	2	2	2	2
SNP_A-4241334	3	3	3	2	3	3	3	3	3	3	2	2
SNP_A-4241339	1	1	3	3	2	2	1	1	2	2	2	2
SNP_A-1780657	3	3	3	3	3	3	3	3	3	3	3	3
SNP_A-1780668	3	3	3	3	2	2	3	3	3	3	3	3
SNP_A-4241387	1	1	2	2	1	1	3	3	1	1	1	1
SNP_A-1780812	3	3	3	3	3	3	3	3	3	3	3	3
SNP_A-1781057	3	3	3	3	3	3	3	3	2	2	3	3
SNP_A-1781105	3	3	3	3	3	3	3	3	2	2	3	3
SNP_A-1781119	3	3	3	3	3	3	3	3	2	2	3	3
SNP_A-4241427	1	1	1	1	1	1	1	1	2	2	1	1
SNP_A-4192552	2	2	2	2	2	2	1	1	2	2	3	3
SNP_A-1781441	3	3	3	3	2	2	3	3	3	3	3	3
SNP_A-4192578	1	1	1	1	1	1	1	1	1	1	1	1
SNP_A-1781936	2	2	1	1	1	1	1	1	1	1	2	2
SNP_A-1782087	3	3	1	1	3	3	1	1	2	2	2	2
SNP_A-1782997	1	1	1	1	1	1	1	1	1	1	1	1
SNP_A-1783007	3	3	3	3	3	3	3	3	3	3	3	3
SNP_A-4192699	2	2	2	2	3	3	3	3	3	3	3	3
SNP_A-1783951	2	2	1	1	1	1	1	1	2	2	2	2
SNP_A-4192880	3	3	3	3	3	3	3	3	3	3	3	3
SNP_A-1785496	1	1	1	1	1	1	1	1	2	2	1	1
SNP_A-4192884	3	3	3	3	3	3	3	3	3	3	3	3
SNP_A-4192907	2	2	2	2	3	3	3	3	1	1	3	3
SNP_A-1785952	2	2	2	2	3	3	3	3	1	1	3	3
SNP_A-4242104	2	2	1	1	3	3	1	1	2	2	1	1
SNP_A-1786621	1	1	1	1	1	1	1	1	1	1	1	1
SNP_A-1787132	1	1	1	1	1	1	1	1	1	1	1	1
SNP_A-4242181	1	1	1	1	1	1	1	1	2	2	1	1
SNP_A-4192994	3	3	3	3	3	3	3	3	2	2	3	3
SNP_A-4192995	3	3	3	3	1	1	1	1	3	3	2	2
SNP_A-1787407	2	2	3	3	3	3	3	3	3	3	3	3
SNP_A-4242280	2	2	3	3	1	1	1	1	3	3	3	3
SNP_A-1788588	1	1	1	1	1	1	1	1	1	1	1	1
SNP_A-1788759	3	3	3	3	3	3	1	1	3	3	3	3
SNP_A-1788762	3	3	3	3	3	3	1	1	3	3	3	3
SNP_A-4193118	3	3	3	3	3	3	1	1	3	3	3	3
SNP_A-4242400	3	3	3	3	3	3	3	3	3	3	3	3
SNP_A-1789073	1	1	1	1	1	1	1	1	1	1	1	1
SNP_A-4242418	3	3	3	3	3	3	1	1	3	3	3	3
SNP_A-1789403	2	2	1	1	1	1	1	1	1	1	1	1
SNP_A-1789428	3	3	3	3	3	3	2	3	3	3	3	3
SNP_A-1789539	1	1	1	1	1	1	1	1	1	1	1	1
SNP_A-1789714	1	1	2	2	1	1	1	1	1	1	1	1
SNP_A-4242614	2	2	1	1	1	1	1	1	1	1	1	1
SNP_A-1790816	1	1	1	1	1	1	3	3	1	1	1	1
SNP_A-1790847	1	1	1	1	1	1	3	3	1	1	1	1
SNP_A-4193249	2	2	1	1	1	1	3	3	1	1	1	1
SNP_A-1790912	2	2	3	3	3	3	1	1	3	3	3	3
SNP_A-1791119	2	2	3	3	3	3	3	3	3	3	3	3
SNP_A-1791204	3	3	3	3	3	3	3	3	3	3	3	3
SNP_A-4193290	2	2	3	3	3	3	3	3	3	3	3	3
SNP_A-4193294	3	3	3	3	3	3	3	3	3	3	3	3
SNP_A-4193299	3	3	3	3	3	3	3	3	3	3	3	3
SNP_A-1791853	2	2	3	3	3	3	1	1	3	3	3	3
SNP_A-1791915	3	3	3	3	3	3	3	3	3	3	3	3
SNP_A-1792036	3	3	3	3	3	3	1	1	3	3	3	3
SNP_A-1792401	2	2	2	2	3	3	1	1	3	3	3	3
SNP_A-1792410	2	2	2	2	1	1	3	3	1	1	1	1
SNP_A-1792634	1	1	1	1	1	1	1	1	1	1	1	1
SNP_A-4242884	3	3	3	3	2	2	3	3	3	3	3	3
SNP_A-1792740	2	2	1	1	1	1	2	2	1	1	1	1
SNP_A-1793901	2	2	1	1	1	1	2	2	1	1	1	1
SNP_A-1794941	3	3	3	3	3	3	2	2	3	3	2	2
SNP_A-4243210	1	1	2	2	1	1	1	1	1	1	1	1
SNP_A-4136763	1	1	2	2	1	1	1	1	1	1	1	1
SNP_A-1795403	2	2	1	1	1	1	1	1	2	2	2	2
SNP_A-1795409	1	1	2	2	1	1	1	1	1	1	1	1
SNP_A-4243237	2	2	1	1	1	1	1	1	3	3	2	2
SNP_A-1795619	3	2	3	3	3	3	3	3	2	3	2	2
SNP_A-1795767	1	1	1	1	1	1	1	1	1	1	1	1
SNP_A-1796165	1	1	1	1	1	1	1	1	1	1	1	1
SNP_A-1796522	3	3	3	3	3	3	3	3	3	3	3	3
SNP_A-1796542	1	1	1	1	1	1	1	1	1	1	1	1
SNP_A-1796572	2	2	3	3	3	3	3	3	1	1	2	2
SNP_A-1796583	2	2	1	1	1	1	1	1	3	3	1	1
SNP_A-1796863	1	1	1	1	1	1	1	1	1	1	1	1
SNP_A-4193720	1	1	3	3	2	2	2	2	2	2	2	2
SNP_A-1797109	3	3	1	1	2	2	2	2	2	2	2	2
SNP_A-4243508	1	1	1	1	1	1	2	2	2	2	1	1
SNP_A-4243563	3	3	3	3	3	3	3	3	2	2	3	3
SNP_A-4243668	3	3	2	2	1	1	3	3	3	3	3	3
SNP_A-1799642	3	3	3	3	2	2	3	3	3	3	3	3
SNP_A-1799657	3	3	3	3	3	3	3	3	3	3	3	3
SNP_A-4243710	3	3	1	1	3	3	2	2	2	2	2	2
SNP_A-1799802	1	1	1	1	1	1	1	1	2	2	1	1
SNP_A-4243758	3	3	3	3	2	2	3	3	3	3	3	3
SNP_A-1800282	1	1	1	1	1	1	1	1	2	2	1	1
SNP_A-1801876	3	3	3	3	3	3	3	3	3	3	3	3
SNP_A-4194143	3	3	3	3	3	3	3	3	3	3	3	3
SNP_A-1801947	2	2	3	3	3	3	2	2	3	3	3	3
SNP_A-1802110	3	3	3	3	3	3	3	3	3	3	3	3
SNP_A-1802397	2	2	1	1	2	2	2	2	1	1	1	1
SNP_A-1802403	1	1	1	1	1	1	1	1	1	1	1	1
SNP_A-1803130	3	3	1	1	1	1	1	1	1	1	1	1
SNP_A-4244128	1	1	1	1	3	3	1	1	1	1	1	1
SNP_A-1803563	1	1	1	1	1	1	1	1	1	1	1	1
SNP_A-1804026	2	2	1	1	1	1	1	1	1	1	1	1
SNP_A-1804443	1	1	1	1	1	1	1	1	1	1	1	1
SNP_A-1805483	1	1	1	1	1	1	1	1	1	1	1	1
SNP_A-1805516	3	3	3	3	3	3	2	2	3	3	3	3
SNP_A-1805523	2	2	2	2	1	1	2	2	2	2	2	2
SNP_A-4244381	3	3	3	3	3	3	2	2	2	2	2	2
SNP_A-1806097	2	2	1	1	3	3	3	3	2	2	2	2
SNP_A-1806415	2	2	3	3	1	1	1	1	2	2	2	2
SNP_A-1806594	2	2	2	2	2	2	2	2	2	2	3	3
SNP_A-1806912	3	3	2	2	2	2	3	3	2	2	3	3
SNP_A-1807244	1	1	2	2	2	2	1	1	2	2	1	1
SNP_A-1807277	3	3	2	2	3	3	3	3	2	2	3	3
SNP_A-1809195	3	3	3	3	2	2	2	2	2	2	3	3
SNP_A-1809647	3	3	3	3	3	3	3	3	3	3	3	3
SNP_A-1810603	3	3	1	1	1	1	2	2	3	3	2	2
SNP_A-1810663	3	3	1	1	1	1	2	2	3	3	2	2
SNP_A-1812042	1	1	1	1	1	1	2	2	1	1	2	2
SNP_A-1812525	3	3	3	3	3	3	2	2	3	3	2	2
SNP_A-4195134	3	3	2	2	2	2	2	2	2	2	2	2
SNP_A-1814385	1	1	1	1	1	1	1	1	1	1	1	1
SNP_A-4245452	2	2	1	1	1	1	1	1	1	1	1	1
SNP_A-4245484	2	2	2	2	1	1	2	2	3	3	2	2
SNP_A-4245684	2	2	3	3	2	2	2	2	3	3	3	3
SNP_A-4245687	2	2	3	3	2	2	2	2	3	3	3	3
SNP_A-4195508	2	2	1	1	1	1	1	1	3	3	2	2
SNP_A-1818118	2	2	3	3	2	2	2	2	1	1	1	1
SNP_A-4195535	3	3	3	3	3	3	2	2	3	3	3	3
SNP_A-1818797	3	3	3	3	2	2	3	3	3	3	2	2
SNP_A-1818905	2	2	1	1	1	1	2	2	3	3	2	2
SNP_A-4245947	2	2	3	3	1	1	3	3	3	3	2	2
SNP_A-4245949	2	2	3	3	2	2	3	3	3	3	3	3
SNP_A-1819348	1	1	1	1	2	2	1	1	1	1	2	2
SNP_A-4195634	3	3	3	3	2	2	3	3	3	3	2	2
SNP_A-4246124	1	1	2	2	1	1	1	1	3	3	1	1
SNP_A-1821227	3	3	2	2	3	3	3	3	3	3	3	3
SNP_A-1822959	2	2	2	2	3	3	2	2	2	2	2	2
SNP_A-1823146	1	1	1	1	2	2	1	1	1	1	1	1
SNP_A-4246371	2	2	2	2	2	2	1	1	2	2	1	1
SNP_A-1823306	2	2	3	3	1	1	1	1	2	2	3	3
SNP_A-1823325	3	3	3	3	3	3	3	3	3	3	3	3
SNP_A-1823791	2	2	2	2	1	1	2	2	3	3	2	2
SNP_A-1823813	2	2	3	3	2	2	2	2	3	3	2	2
SNP_A-1823978	1	1	1	1	2	2	1	1	1	1	1	1
SNP_A-1824251	1	1	1	1	2	2	1	1	1	1	1	1
SNP_A-1824815	2	2	1	1	1	1	1	1	1	1	1	1
SNP_A-1825249	2	2	3	3	3	3	3	3	3	3	3	3
SNP_A-1825294	2	2	3	3	2	2	3	3	2	2	3	3
SNP_A-1825322	3	3	3	3	3	3	3	3	2	2	3	3
SNP_A-4246668	2	2	1	1	1	1	1	1	1	1	1	1
SNP_A-1826050	2	2	2	2	2	2	2	2	2	2	1	1
SNP_A-1827350	1	1	1	1	1	1	1	1	1	1	1	1
SNP_A-1827356	1	1	1	1	1	1	1	1	1	1	1	1
SNP_A-4246950	3	3	3	3	3	3	3	3	3	3	3	3
SNP_A-1829549	1	1	1	1	1	1	1	1	1	1	1	1
SNP_A-1830028	2	2	2	2	3	3	2	2	3	3	3	3
SNP_A-1830036	2	2	2	2	1	1	3	2	1	1	1	1
SNP_A-1830045	2	2	2	2	1	1	3	2	1	1	1	1
SNP_A-1830314	3	3	3	3	3	3	3	3	3	3	3	3
SNP_A-1830606	3	3	3	3	2	2	3	3	3	3	3	3
SNP_A-1830623	1	1	2	2	2	2	2	2	1	1	1	1
SNP_A-1830925	3	3	3	3	3	3	1	1	3	3	3	3
SNP_A-4196663	3	3	3	3	3	3	3	3	2	2	3	3
SNP_A-4196664	3	3	3	3	3	3	3	3	2	2	3	3
SNP_A-1832355	1	1	1	1	1	1	1	1	1	1	1	1
SNP_A-4247398	2	2	2	2	2	2	3	3	2	2	3	3
SNP_A-4247402	2	2	2	2	2	2	3	3	2	2	3	3
SNP_A-1832689	1	1	1	1	1	1	1	1	1	1	1	1
SNP_A-4247469	2	2	1	1	2	2	1	1	1	1	1	1
SNP_A-1833005	3	3	3	3	2	2	3	3	3	3	3	3
SNP_A-1833666	1	1	2	2	1	1	3	3	1	1	3	3
SNP_A-4247537	2	2	2	2	1	1	1	1	3	3	1	1
SNP_A-4247538	1	1	1	1	1	1	1	1	1	1	1	1
SNP_A-1833673	3	3	3	3	3	3	2	2	3	3	2	2
SNP_A-1833821	2	2	2	2	3	3	1	1	1	1	1	1
SNP_A-1834251	3	3	3	3	3	3	3	3	3	3	3	3
SNP_A-4196912	1	1	1	1	2	2	3	3	3	3	3	3
SNP_A-1834268	1	1	1	1	1	1	1	1	1	1	1	1
SNP_A-1834539	2	2	1	1	1	1	2	2	1	1	1	1
SNP_A-1834585	3	3	3	3	3	3	3	3	3	3	3	3
SNP_A-1836942	2	2	3	3	2	2	1	1	1	1	2	2
SNP_A-1836971	2	2	3	3	2	2	1	1	1	1	2	2
SNP_A-1837222	1	1	1	1	2	2	2	2	2	2	2	2
SNP_A-1838137	3	3	3	3	1	1	2	2	2	2	1	1
SNP_A-1838287	2	2	2	2	1	1	3	3	2	2	1	1
SNP_A-1838823	3	3	3	3	1	1	3	3	2	2	1	1
SNP_A-1838838	1	1	1	1	1	1	1	1	1	1	1	1
SNP_A-1839222	2	2	3	3	3	3	3	3	3	3	3	3
SNP_A-4248177	1	1	1	1	1	1	1	1	1	1	1	1
SNP_A-4248261	1	1	1	1	1	1	1	1	1	1	1	1
SNP_A-1840411	2	2	2	2	2	2	3	3	2	2	2	2
SNP_A-1840665	2	2	1	1	1	1	1	1	3	3	2	2
SNP_A-4197516	2	2	2	2	1	1	1	1	2	2	2	2
SNP_A-1841242	3	3	3	3	2	2	3	3	2	2	3	3
SNP_A-1841665	1	1	1	1	1	1	1	1	1	1	1	1
SNP_A-4197579	2	2	1	1	1	1	1	1	2	2	2	2
SNP_A-4197580	3	3	2	3	3	3	3	3	3	3	3	3
SNP_A-1842983	3	3	3	3	2	2	3	3	3	3	2	2
SNP_A-1843665	1	1	2	2	1	1	3	3	2	2	2	2
SNP_A-1843796	3	3	3	3	2	2	3	3	3	3	3	3
SNP_A-4197745	3	3	3	3	3	3	3	3	3	3	3	3
SNP_A-1844050	3	3	3	3	2	2	3	3	3	3	3	3
SNP_A-1844205	3	3	3	3	3	3	3	3	3	3	3	3
SNP_A-1844216	2	2	1	1	1	1	1	1	1	1	2	2
SNP_A-4197807	3	3	2	2	2	2	2	2	3	3	3	3
SNP_A-1844823	2	2	3	3	3	3	3	3	2	2	2	2
SNP_A-4248747	3	3	3	3	3	3	3	3	3	3	3	3
SNP_A-1846056	3	3	2	2	3	3	1	1	2	2	2	2
SNP_A-4197924	2	2	2	2	1	1	1	1	2	2	2	2
SNP_A-1846078	3	3	2	2	3	3	1	1	2	2	2	2
SNP_A-1846237	2	2	2	2	3	3	1	1	2	2	2	2
SNP_A-1846243	2	2	2	2	1	1	3	3	2	2	2	2
SNP_A-4197978	2	2	2	2	2	2	3	3	2	2	2	2
SNP_A-1847048	2	2	2	2	1	1	3	3	2	2	2	2
SNP_A-4248989	3	3	3	3	1	1	3	3	3	3	3	3
SNP_A-4198029	1	1	1	1	3	3	1	1	1	1	1	1
SNP_A-1847233	2	2	2	2	1	1	3	3	2	2	2	2
SNP_A-4198157	2	2	2	2	2	2	1	1	3	3	2	2
SNP_A-1849109	3	3	3	3	3	3	3	3	2	2	2	2
SNP_A-4249209	2	2	2	2	1	1	3	3	2	2	2	2
SNP_A-1849595	2	2	2	2	2	2	1	1	3	3	2	2
SNP_A-1850247	2	2	1	1	1	1	2	2	1	1	1	1
SNP_A-1850257	1	1	1	1	2	2	1	1	1	1	2	2
SNP_A-1850406	3	3	3	3	3	3	3	3	3	3	3	3
SNP_A-1850436	1	1	2	2	3	3	2	2	1	1	2	2
SNP_A-1850438	1	1	1	1	2	2	1	1	1	1	2	2
SNP_A-1851031	3	3	3	3	2	2	3	3	3	3	3	3
SNP_A-1851197	2	2	3	3	1	1	3	3	3	3	1	1
SNP_A-1852545	1	1	2	2	1	1	2	2	1	1	1	1
SNP_A-4198587	3	3	3	3	2	2	3	3	2	2	2	2
SNP_A-1853114	2	2	2	2	2	2	2	2	1	1	1	1
SNP_A-1853120	3	3	3	3	3	3	3	3	3	3	3	3
SNP_A-1853292	2	2	2	2	1	1	2	2	2	2	2	2
SNP_A-1853719	3	3	3	3	2	2	3	3	2	2	2	2
SNP_A-1854124	2	2	3	3	2	2	3	3	3	3	3	3
SNP_A-1854378	2	2	1	1	2	2	1	1	1	1	1	1
SNP_A-1854598	3	3	2	2	3	2	2	2	2	2	1	1
SNP_A-1854765	3	3	3	3	3	3	3	3	3	3	3	3
SNP_A-4249933	2	2	1	1	1	1	2	2	1	1	1	1
SNP_A-4250068	1	1	1	1	1	1	2	2	1	1	1	1
SNP_A-4250131	2	2	1	1	2	2	2	2	2	2	2	2
SNP_A-1857561	2	2	3	3	2	2	2	2	2	2	2	2
SNP_A-1857605	1	1	3	3	2	2	1	1	2	2	1	1
SNP_A-1857766	1	1	1	1	1	1	1	1	1	1	1	1
SNP_A-1857940	1	1	2	2	2	2	2	2	2	2	2	2
