Data
F1	7.95735116317157
F2	4.37660141246443
F3	5.74246335193366
F4	5.19051923788683
F5	1.60300257281153
F6	2.81773425403867
F7	5.17033390880435
F8	5.22996905414235
F9	3.39419975267174
F10	1.98185158485659
F11	6.20043925513827
F12	2.16509491774587
F13	2.63638680900192
F14	8.19376927112506
F15	1.8169878991761
F16	0.82728338582708
F17	7.20909418030639
F18	4.40237743738032
F19	5.13920607086061
F20	5.88959347115027
F21	5.43273769500726
F22	4.17261727922136
F23	2.49099335663937
F24	3.68814066207864
F25	8.33695534198289
F26	2.97430105665029
F27	2.01460780956932
F28	2.48291450278742
F29	6.88173542798149
F30	7.58117698103666
F31	1.21795356460615
F32	4.37110077666262
F33	6.00640290186835
F34	8.06416382787354
F35	8.72252619482831
F36	5.53172567831751
F37	4.63790631888177
F38	1.01632229110424
F39	7.81420138357282
F40	2.41798871045343
F41	1.57349493436872
F42	5.57853949188842
F43	7.8502693369598
F44	3.96536980251965
F45	3.52948119673365
F46	7.48639560721725
F47	4.9303193666414
F48	10.2359551525603
F49	4.82854768774521
F50	2.72806033128604
F51	3.75450328277352
F52	8.32089938239964
F53	5.33987925398548
F54	6.50646027499066
F55	8.03931333521847
F56	5.77730638671311
F57	5.05619459060573
F58	4.6317035191342
F59	6.42024382662481
F60	8.15977084011227
F61	6.77631301064274
F62	3.39867936031634
F63	4.64229955341475
F64	4.80788296339151
F65	6.97930805158565
F66	2.96485752101984
F67	7.42681514724715
F68	5.48581186039982
F69	4.79034969792187
F70	6.51170180069946
F71	3.76616662250216
F72	6.8125901389893
F73	-0.711854606798049
F74	7.16685099081522
F75	4.03611754979767
F76	4.03720161925464
F77	1.1612466089778
F78	3.49369293286174
F79	3.6904040525238
F80	7.58571894873267
F81	2.95229563159824
F82	3.57935681009759
F83	2.34771414555361
F84	6.23428557892082
F85	3.23225939681073
F86	5.45055804105999
F87	3.5669279950351
F88	0.56415458036992
F89	4.85563685989293
F90	5.43278733217944
F91	7.62288424195268
F92	10.5047493906104
F93	6.03634473921836
F94	6.60186233053245
F95	4.8633129839421
F96	5.67050820563507
F97	3.28689527065258
F98	8.68650571224047
F99	2.71738436405486
F100	2.39001071867189
