Data
F1	3.55212258687989
F2	6.83424562948619
F3	2.56419525591446
F4	4.3496665330548
F5	3.65804793732397
F6	7.53319445499053
F7	2.9232568427495
F8	3.75174246638516
F9	7.6051705741167
F10	7.17763878410197
F11	5.42785478296618
F12	8.17841121072277
F13	7.91362946160739
F14	3.91251272437906
F15	3.54408700127146
F16	4.99355712518004
F17	4.98882083256668
F18	5.71264696192222
F19	4.53442470980133
F20	4.80760518028323
F21	3.95408471494036
F22	5.57790632566002
F23	1.61978677903787
F24	1.13559172749987
F25	1.98741462646294
F26	4.89875815624556
F27	1.1677832171754
F28	5.92930478034759
F29	5.05008249083537
F30	4.50359924728491
F31	3.61095224188415
F32	4.73873079387474
F33	4.6466165408023
F34	5.80389371600316
F35	5.88621247926744
F36	0.653896517059014
F37	7.68010683641024
F38	3.85371027070986
F39	7.26318804807346
F40	6.45363304539801
F41	6.36640814400624
F42	3.56109880208609
F43	6.51953790792334
F44	3.68622334394269
F45	5.46823587725689
F46	3.0705054318322
F47	0.625787113400333
F48	4.86086090449842
F49	3.87218967773862
F50	7.70717730993458
F51	6.05811711364459
F52	6.82531700998338
F53	9.41927078052812
F54	3.89345186006232
F55	4.20494841298121
F56	5.67296001840215
F57	8.3867766794685
F58	3.63713542083043
F59	5.39740768546295
F60	6.33490908632539
F61	10.1401129115654
F62	3.57886920169557
F63	3.89833935556855
F64	5.51017265256466
F65	5.33025003750708
F66	5.92163964401226
F67	3.90510059821967
F68	3.90489943623663
F69	4.99640387102311
F70	3.30935535891116
F71	1.9238242223047
F72	3.66875045465377
F73	6.63201083852987
F74	2.59694508389303
F75	5.35234334515753
F76	4.97297866419298
F77	5.87799211746379
F78	6.12727299214634
F79	3.14139592235918
F80	5.80872917839935
F81	5.26985985164101
F82	7.16546099981708
F83	3.85078234920554
F84	3.73440444559799
F85	5.37414587192935
F86	8.00182579616151
F87	5.41718774376499
F88	3.71954778598561
F89	7.45096697978484
F90	5.75723298729443
F91	6.34347664681409
F92	4.59650534565833
F93	5.75340814647391
F94	3.99192102956058
F95	5.65887100254583
F96	3.39211530066053
F97	5.22363578275208
F98	1.74077550362406
F99	6.1109670017464
F100	3.90969664469135
